# This file uses centimeters as units for non-parametric coordinates.

mtllib Wooden_Barell.mtl
g default
v 4.594872 2.891098 -3.338371
v 1.755085 2.891098 -5.401597
v -1.755086 2.891098 -5.401597
v -4.594873 2.891098 -3.338370
v -5.679575 2.891098 0.000000
v -4.594872 2.891098 3.338371
v -1.755085 2.891098 5.401597
v 1.755085 2.891098 5.401596
v 4.594872 2.891098 3.338370
v 5.679574 2.891098 -0.000000
v 4.594872 16.958271 -3.338371
v 1.755085 16.958271 -5.401597
v -1.755086 16.958271 -5.401597
v -4.594873 16.958271 -3.338370
v -5.679575 16.958271 0.000000
v -4.594872 16.958271 3.338371
v -1.755085 16.958271 5.401597
v 1.755085 16.958271 5.401596
v 4.594872 16.958271 3.338370
v 5.679574 16.958271 -0.000000
v 4.939707 13.863496 -3.588908
v 6.105813 13.863496 0.000000
v 4.939706 13.863496 3.588907
v 1.886800 13.863496 5.806973
v -1.886800 13.863496 5.806974
v -4.939707 13.863496 3.588907
v -6.105814 13.863496 0.000000
v -4.939708 13.863496 -3.588907
v -1.886801 13.863496 -5.806974
v 1.886800 13.863496 -5.806974
v 4.939707 5.985871 -3.588908
v 6.105813 5.985871 0.000000
v 4.939706 5.985871 3.588907
v 1.886800 5.985871 5.806973
v -1.886800 5.985871 5.806974
v -4.939707 5.985871 3.588907
v -6.105814 5.985871 0.000000
v -4.939708 5.985871 -3.588907
v -1.886801 5.985871 -5.806974
v 1.886800 5.985871 -5.806974
v -1.886801 10.377646 -5.806974
v 1.886800 10.377646 -5.806974
v 4.939707 10.377646 -3.588908
v 6.105813 10.377646 0.000000
v 4.939706 10.377646 3.588907
v 1.886800 10.377646 5.806973
v -1.886800 10.377646 5.806974
v -4.939707 10.377646 3.588907
v -6.105814 10.377646 0.000000
v -4.939708 10.377646 -3.588907
v -1.886801 9.471721 -5.806974
v 1.886800 9.471721 -5.806974
v 4.939707 9.471721 -3.588908
v 6.105813 9.471721 0.000000
v 4.939706 9.471721 3.588907
v 1.886800 9.471721 5.806973
v -1.886800 9.471721 5.806974
v -4.939707 9.471721 3.588907
v -6.105814 9.471721 0.000000
v -4.939708 9.471721 -3.588907
v -1.958884 9.471721 -6.028821
v 1.958882 9.471721 -6.028822
v -1.958884 10.377646 -6.028821
v 1.958882 10.377646 -6.028822
v 5.128421 9.471721 -3.726017
v 5.128421 10.377646 -3.726017
v 6.339077 9.471721 0.000000
v 6.339077 10.377646 0.000000
v 5.128421 9.471721 3.726016
v 5.128421 10.377646 3.726016
v 1.958883 9.471721 6.028821
v 1.958883 10.377646 6.028821
v -1.958882 9.471721 6.028821
v -1.958882 10.377646 6.028821
v -5.128421 9.471721 3.726017
v -5.128421 10.377646 3.726017
v -6.339078 9.471721 0.000000
v -6.339078 10.377646 0.000000
v -5.128422 9.471721 -3.726016
v -5.128422 10.377646 -3.726016
v 4.640896 2.883262 -3.371809
v 1.772664 2.883262 -5.455701
v 1.904379 5.978035 -5.861079
v 4.985731 5.978035 -3.622346
v -1.772665 2.883262 -5.455701
v -1.904380 5.978035 -5.861078
v -4.640897 2.883262 -3.371808
v -4.985732 5.978035 -3.622345
v -5.736464 2.883262 0.000000
v -6.162703 5.978035 0.000000
v -4.640896 2.883262 3.371809
v -4.985731 5.978035 3.622346
v -1.772664 2.883262 5.455701
v -1.904379 5.978035 5.861078
v 1.772665 2.883262 5.455700
v 1.904380 5.978035 5.861078
v 4.640895 2.883262 3.371808
v 4.985730 5.978035 3.622345
v 5.736463 2.883262 -0.000000
v 6.162702 5.978035 0.000000
v 4.985731 13.871331 -3.622346
v 6.162702 13.871331 0.000000
v 4.640896 16.966106 -3.371809
v 5.736463 16.966106 -0.000000
v 4.985730 13.871331 3.622345
v 4.640895 16.966106 3.371808
v 1.904380 13.871331 5.861078
v 1.772665 16.966106 5.455700
v -1.904379 13.871331 5.861078
v -1.772664 16.966106 5.455701
v -4.985731 13.871331 3.622346
v -4.640896 16.966106 3.371809
v -6.162703 13.871331 0.000000
v -5.736464 16.966106 0.000000
v -4.985732 13.871331 -3.622345
v -4.640897 16.966106 -3.371808
v -1.904380 13.871331 -5.861078
v -1.772665 16.966106 -5.455701
v 1.904379 13.871331 -5.861079
v 1.772664 16.966106 -5.455701
vt 0.845445 0.095699
vt 0.767320 0.038938
vt 0.670752 0.038938
vt 0.592627 0.095699
vt 0.562786 0.187541
vt 0.592627 0.279382
vt 0.670752 0.336143
vt 0.767320 0.336143
vt 0.845445 0.279382
vt 0.875286 0.187541
vt 0.594036 0.343791
vt 0.619036 0.343791
vt 0.644036 0.343791
vt 0.669036 0.343791
vt 0.694036 0.343791
vt 0.719036 0.343791
vt 0.744036 0.343791
vt 0.769036 0.343791
vt 0.794036 0.343791
vt 0.819036 0.343791
vt 0.844036 0.343791
vt 0.054268 0.031331
vt 0.079268 0.031331
vt 0.104269 0.031331
vt 0.129269 0.031331
vt 0.154269 0.031331
vt 0.179268 0.031331
vt 0.204268 0.031331
vt 0.229268 0.031331
vt 0.254268 0.031331
vt 0.279268 0.031331
vt 0.304268 0.031331
vt 0.305677 0.094800
vt 0.227552 0.038039
vt 0.130985 0.038039
vt 0.052860 0.094800
vt 0.023018 0.186642
vt 0.052860 0.278483
vt 0.130985 0.335244
vt 0.227552 0.335244
vt 0.305677 0.278483
vt 0.335518 0.186642
vt 0.684307 0.492619
vt 0.773380 0.492619
vt 0.773380 0.597005
vt 0.684307 0.597005
vt 0.595233 0.492619
vt 0.595233 0.597005
vt 0.506159 0.492619
vt 0.506159 0.597005
vt 0.417085 0.492619
vt 0.417085 0.597005
vt 0.328012 0.492619
vt 0.773380 0.369640
vt 0.773380 0.462157
vt 0.060790 0.369640
vt 0.060790 0.462157
vt 0.149864 0.369640
vt 0.149864 0.462157
vt 0.238938 0.369640
vt 0.238938 0.462157
vt 0.328012 0.369640
vt 0.328012 0.462157
vt 0.417085 0.369640
vt 0.417085 0.462157
vt 0.506159 0.369640
vt 0.506159 0.462157
vt 0.595233 0.369640
vt 0.595233 0.462157
vt 0.684307 0.369640
vt 0.684307 0.462157
vt 0.862454 0.622344
vt 0.060790 0.622344
vt 0.060790 0.649427
vt 0.862454 0.649427
vt 0.773381 0.622344
vt 0.773381 0.649427
vt 0.684307 0.622344
vt 0.684307 0.649427
vt 0.595233 0.622344
vt 0.595233 0.649427
vt 0.506159 0.622344
vt 0.506159 0.649427
vt 0.417085 0.622344
vt 0.417085 0.649427
vt 0.328012 0.622344
vt 0.328012 0.649427
vt 0.238938 0.622344
vt 0.238938 0.649427
vt 0.149864 0.622344
vt 0.149864 0.649427
vt 0.862454 0.622344
vt 0.060790 0.622344
vt 0.060790 0.649427
vt 0.773380 0.622344
vt 0.773380 0.649427
vt 0.684307 0.622344
vt 0.684307 0.649427
vt 0.595233 0.622344
vt 0.595233 0.649427
vt 0.506159 0.622344
vt 0.506159 0.649427
vt 0.417085 0.622344
vt 0.417085 0.649427
vt 0.328012 0.622344
vt 0.594036 0.343791
vt 0.619036 0.343791
vt 0.328012 0.649427
vt 0.238938 0.622344
vt 0.644036 0.343791
vt 0.238938 0.649427
vt 0.669036 0.343791
vt 0.149864 0.622344
vt 0.694036 0.343791
vt 0.149864 0.649427
vt 0.719036 0.343791
vt 0.744036 0.343791
vt 0.773380 0.462392
vt 0.769036 0.343791
vt 0.060790 0.462392
vt 0.794036 0.343791
vt 0.149864 0.462392
vt 0.819036 0.343791
vt 0.238938 0.462392
vt 0.844036 0.343791
vt 0.328012 0.462392
vt 0.684307 0.842362
vt 0.773380 0.842362
vt 0.304268 0.031331
vt 0.279268 0.031331
vt 0.773380 0.852983
vt 0.254268 0.031331
vt 0.684307 0.852983
vt 0.229268 0.031331
vt 0.595233 0.842362
vt 0.204268 0.031331
vt 0.595233 0.852983
vt 0.179268 0.031331
vt 0.506159 0.842362
vt 0.154269 0.031331
vt 0.506159 0.852983
vt 0.129269 0.031331
vt 0.417085 0.842362
vt 0.104269 0.031331
vt 0.417085 0.852983
vt 0.079268 0.031331
vt 0.328012 0.842362
vt 0.054268 0.031331
vt 0.684307 0.868542
vt 0.773380 0.868542
vt 0.773380 0.953693
vt 0.684307 0.953693
vt 0.595233 0.868542
vt 0.595233 0.953693
vt 0.506159 0.868542
vt 0.506159 0.953693
vt 0.417085 0.868542
vt 0.417085 0.953693
vt 0.328012 0.868542
vt 0.328012 0.953693
vt 0.238938 0.868542
vt 0.238938 0.953693
vt 0.149864 0.868542
vt 0.149864 0.953693
vt 0.060790 0.868542
vt 0.060790 0.953693
vt 0.862454 0.953693
vt 0.862454 0.868542
vt 0.951528 0.868542
vt 0.951528 0.953693
vt 0.328012 0.852983
vt 0.238938 0.842362
vt 0.238938 0.852983
vt 0.149864 0.842362
vt 0.149864 0.852983
vt 0.060790 0.842362
vt 0.060790 0.852983
vt 0.862454 0.842362
vt 0.862454 0.852983
vt 0.951528 0.842362
vt 0.951528 0.852983
vt 0.328012 0.597005
vt 0.238938 0.492619
vt 0.238938 0.597005
vt 0.149864 0.492619
vt 0.149864 0.597005
vt 0.060790 0.492619
vt 0.060790 0.597005
vt 0.862454 0.597005
vt 0.060790 0.711233
vt 0.060790 0.815619
vt 0.862454 0.815619
vt 0.773380 0.711233
vt 0.773380 0.815619
vt 0.684307 0.711233
vt 0.684307 0.815619
vt 0.595233 0.711233
vt 0.595233 0.815619
vt 0.502675 0.711233
vt 0.502675 0.815619
vt 0.413601 0.711233
vt 0.413601 0.815619
vt 0.328012 0.711233
vt 0.328012 0.815619
vt 0.238938 0.711233
vt 0.238938 0.815619
vt 0.149864 0.711233
vt 0.149864 0.815619
vt 0.862454 0.492619
vt 0.951528 0.492619
vt 0.951528 0.597005
vt 0.862454 0.711233
vt 0.951528 0.711233
vt 0.951528 0.815619
vt 0.417085 0.462392
vt 0.506159 0.462392
vt 0.595233 0.462392
vt 0.684307 0.462392
vt 0.862454 0.369640
vt 0.951528 0.369640
vt 0.951528 0.622344
vt 0.951528 0.622344
vt 0.951528 0.649427
vt 0.862454 0.649427
vt 0.951528 0.649427
vt 0.951528 0.462392
vt 0.862454 0.462392
vt 0.862454 0.462157
vt 0.951528 0.462157
vn 0.582807 -0.129878 -0.802165
vn 0.582807 -0.129878 -0.802165
vn 0.582807 -0.129878 -0.802165
vn 0.582807 -0.129878 -0.802165
vn -0.000000 -0.129878 -0.991530
vn -0.000000 -0.129878 -0.991530
vn -0.000000 -0.129878 -0.991530
vn -0.000000 -0.129878 -0.991530
vn -0.582807 -0.129878 -0.802165
vn -0.582807 -0.129878 -0.802165
vn -0.582807 -0.129878 -0.802165
vn -0.582807 -0.129878 -0.802165
vn -0.943001 -0.129878 -0.306399
vn -0.943001 -0.129878 -0.306399
vn -0.943001 -0.129878 -0.306399
vn -0.943001 -0.129878 -0.306399
vn -0.943001 -0.129878 0.306400
vn -0.943001 -0.129878 0.306400
vn -0.943001 -0.129878 0.306400
vn -0.943001 -0.129878 0.306400
vn -0.582807 -0.129878 0.802165
vn -0.582807 -0.129878 0.802165
vn -0.582807 -0.129878 0.802165
vn -0.582807 -0.129878 0.802165
vn 0.000000 -0.129878 0.991530
vn 0.000000 -0.129878 0.991530
vn 0.000000 -0.129878 0.991530
vn 0.000000 -0.129878 0.991530
vn 0.582807 -0.129878 0.802164
vn 0.582807 -0.129878 0.802164
vn 0.582807 -0.129878 0.802164
vn 0.582807 -0.129878 0.802164
vn 0.943001 -0.129878 0.306400
vn 0.943001 -0.129878 0.306400
vn 0.943001 -0.129878 0.306400
vn 0.943001 -0.129878 0.306400
vn 0.943001 -0.129878 -0.306399
vn 0.943001 -0.129878 -0.306399
vn 0.943001 -0.129878 -0.306399
vn 0.943001 -0.129878 -0.306399
vn -0.000335 -1.000000 0.000244
vn -0.000415 -1.000000 -0.000000
vn -0.000335 -1.000000 -0.000244
vn -0.000128 -1.000000 -0.000394
vn 0.000128 -1.000000 -0.000394
vn 0.000335 -1.000000 -0.000244
vn 0.000415 -1.000000 -0.000000
vn 0.000335 -1.000000 0.000244
vn 0.000128 -1.000000 0.000394
vn -0.000128 -1.000000 0.000394
vn -0.000335 1.000000 0.000244
vn -0.000128 1.000000 0.000394
vn 0.000128 1.000000 0.000394
vn 0.000335 1.000000 0.000244
vn 0.000415 1.000000 -0.000000
vn 0.000335 1.000000 -0.000244
vn 0.000128 1.000000 -0.000394
vn -0.000128 1.000000 -0.000394
vn -0.000335 1.000000 -0.000244
vn -0.000415 1.000000 -0.000000
vn 0.943001 0.129878 -0.306399
vn 0.943001 0.129878 -0.306399
vn 0.943001 0.129878 -0.306399
vn 0.943001 0.129878 -0.306399
vn 0.943001 0.129878 0.306400
vn 0.943001 0.129878 0.306400
vn 0.943001 0.129878 0.306400
vn 0.943001 0.129878 0.306400
vn 0.582807 0.129878 0.802165
vn 0.582807 0.129878 0.802165
vn 0.582807 0.129878 0.802165
vn 0.582807 0.129878 0.802165
vn 0.000000 0.129878 0.991530
vn 0.000000 0.129878 0.991530
vn 0.000000 0.129878 0.991530
vn 0.000000 0.129878 0.991530
vn -0.582807 0.129878 0.802165
vn -0.582807 0.129878 0.802165
vn -0.582807 0.129878 0.802165
vn -0.582807 0.129878 0.802165
vn -0.943001 0.129878 0.306400
vn -0.943001 0.129878 0.306400
vn -0.943001 0.129878 0.306400
vn -0.943001 0.129878 0.306400
vn -0.943001 0.129878 -0.306399
vn -0.943001 0.129878 -0.306399
vn -0.943001 0.129878 -0.306399
vn -0.943001 0.129878 -0.306399
vn -0.582807 0.129878 -0.802165
vn -0.582807 0.129878 -0.802165
vn -0.582807 0.129878 -0.802165
vn -0.582807 0.129878 -0.802165
vn -0.000000 0.129878 -0.991530
vn -0.000000 0.129878 -0.991530
vn -0.000000 0.129878 -0.991530
vn -0.000000 0.129878 -0.991530
vn 0.582807 0.129878 -0.802165
vn 0.582807 0.129878 -0.802165
vn 0.582807 0.129878 -0.802165
vn 0.582807 0.129878 -0.802165
vn 0.951057 0.000000 -0.309017
vn 0.951057 0.000000 -0.309017
vn 0.951057 0.000000 -0.309017
vn 0.951057 0.000000 -0.309017
vn 0.951057 0.000000 0.309017
vn 0.951057 0.000000 0.309017
vn 0.951057 0.000000 0.309017
vn 0.951057 0.000000 0.309017
vn 0.587785 0.000000 0.809017
vn 0.587785 0.000000 0.809017
vn 0.587785 0.000000 0.809017
vn 0.587785 0.000000 0.809017
vn 0.000000 0.000000 1.000000
vn 0.000000 0.000000 1.000000
vn 0.000000 0.000000 1.000000
vn 0.000000 0.000000 1.000000
vn -0.587785 0.000000 0.809017
vn -0.587785 0.000000 0.809017
vn -0.587785 0.000000 0.809017
vn -0.587785 0.000000 0.809017
vn -0.951057 0.000000 0.309017
vn -0.951057 0.000000 0.309017
vn -0.951057 0.000000 0.309017
vn -0.951057 0.000000 0.309017
vn -0.951057 0.000000 -0.309017
vn -0.951057 0.000000 -0.309017
vn -0.951057 0.000000 -0.309017
vn -0.951057 0.000000 -0.309017
vn -0.587785 0.000000 -0.809017
vn -0.587785 0.000000 -0.809017
vn -0.587785 0.000000 -0.809017
vn -0.587785 0.000000 -0.809017
vn 0.000000 0.000000 -1.000000
vn 0.000000 0.000000 -1.000000
vn 0.000000 0.000000 -1.000000
vn 0.000000 0.000000 -1.000000
vn 0.587785 0.000000 -0.809017
vn 0.587785 0.000000 -0.809017
vn 0.587785 0.000000 -0.809017
vn 0.587785 0.000000 -0.809017
vn 0.000000 0.000000 -1.000000
vn 0.000000 0.000000 -1.000000
vn 0.000000 0.000000 -1.000000
vn 0.000000 0.000000 -1.000000
vn 0.587785 0.000000 -0.809017
vn 0.587785 0.000000 -0.809017
vn 0.587785 0.000000 -0.809017
vn 0.587785 0.000000 -0.809017
vn 0.951057 0.000000 -0.309017
vn 0.951057 0.000000 -0.309017
vn 0.951057 0.000000 -0.309017
vn 0.951057 0.000000 -0.309017
vn 0.951057 0.000000 0.309017
vn 0.951057 0.000000 0.309017
vn 0.951057 0.000000 0.309017
vn 0.951057 0.000000 0.309017
vn 0.587785 0.000000 0.809017
vn 0.587785 0.000000 0.809017
vn 0.587785 0.000000 0.809017
vn 0.587785 0.000000 0.809017
vn 0.000000 0.000000 1.000000
vn 0.000000 0.000000 1.000000
vn 0.000000 0.000000 1.000000
vn 0.000000 0.000000 1.000000
vn -0.587785 0.000000 0.809017
vn -0.587785 0.000000 0.809017
vn -0.587785 0.000000 0.809017
vn -0.587785 0.000000 0.809017
vn -0.951057 0.000000 0.309017
vn -0.951057 0.000000 0.309017
vn -0.951057 0.000000 0.309017
vn -0.951057 0.000000 0.309017
vn -0.951057 0.000000 -0.309017
vn -0.951057 0.000000 -0.309017
vn -0.951057 0.000000 -0.309017
vn -0.951057 0.000000 -0.309017
vn -0.587785 0.000000 -0.809017
vn -0.587785 0.000000 -0.809017
vn -0.587785 0.000000 -0.809017
vn -0.587785 0.000000 -0.809017
vn -0.000000 0.000000 -1.000000
vn -0.000000 0.000000 -1.000000
vn -0.000000 0.000000 -1.000000
vn -0.000000 0.000000 -1.000000
vn 0.587785 0.000000 -0.809017
vn 0.587785 0.000000 -0.809017
vn 0.587785 0.000000 -0.809017
vn 0.587785 0.000000 -0.809017
vn 0.951057 0.000000 -0.309017
vn 0.951057 0.000000 -0.309017
vn 0.951057 0.000000 -0.309017
vn 0.951057 0.000000 -0.309017
vn 0.951057 0.000000 0.309017
vn 0.951057 0.000000 0.309017
vn 0.951057 0.000000 0.309017
vn 0.951057 0.000000 0.309017
vn 0.587785 0.000000 0.809017
vn 0.587785 0.000000 0.809017
vn 0.587785 0.000000 0.809017
vn 0.587785 0.000000 0.809017
vn 0.000000 0.000000 1.000000
vn 0.000000 0.000000 1.000000
vn 0.000000 0.000000 1.000000
vn 0.000000 0.000000 1.000000
vn -0.587785 0.000000 0.809017
vn -0.587785 0.000000 0.809017
vn -0.587785 0.000000 0.809017
vn -0.587785 0.000000 0.809017
vn -0.951057 0.000000 0.309017
vn -0.951057 0.000000 0.309017
vn -0.951057 0.000000 0.309017
vn -0.951057 0.000000 0.309017
vn -0.951057 0.000000 -0.309017
vn -0.951057 0.000000 -0.309017
vn -0.951057 0.000000 -0.309017
vn -0.951057 0.000000 -0.309017
vn -0.587785 0.000000 -0.809017
vn -0.587785 0.000000 -0.809017
vn -0.587785 0.000000 -0.809017
vn -0.587785 0.000000 -0.809017
vn 0.000000 -1.000000 0.000000
vn 0.000000 -1.000000 0.000000
vn 0.000000 -1.000000 0.000000
vn 0.000000 -1.000000 0.000000
vn 0.000000 1.000000 0.000000
vn 0.000000 1.000000 0.000000
vn 0.000000 1.000000 0.000000
vn 0.000000 1.000000 0.000000
vn 0.000000 -1.000000 -0.000000
vn 0.000000 -1.000000 -0.000000
vn 0.000000 1.000000 0.000000
vn 0.000000 1.000000 0.000000
vn 0.000000 -1.000000 -0.000000
vn 0.000000 -1.000000 -0.000000
vn 0.000000 1.000000 0.000000
vn 0.000000 1.000000 0.000000
vn 0.000000 -1.000000 -0.000000
vn 0.000000 -1.000000 -0.000000
vn 0.000000 1.000000 -0.000000
vn 0.000000 1.000000 -0.000000
vn 0.000000 -1.000000 -0.000000
vn 0.000000 -1.000000 -0.000000
vn 0.000000 1.000000 -0.000000
vn 0.000000 1.000000 -0.000000
vn 0.000000 -1.000000 -0.000000
vn 0.000000 -1.000000 -0.000000
vn 0.000000 1.000000 -0.000000
vn 0.000000 1.000000 0.000000
vn 0.000000 -1.000000 0.000000
vn 0.000000 -1.000000 0.000000
vn 0.000000 1.000000 -0.000000
vn 0.000000 1.000000 -0.000000
vn 0.000000 -1.000000 -0.000000
vn 0.000000 -1.000000 -0.000000
vn 0.000000 1.000000 -0.000000
vn 0.000000 1.000000 -0.000000
vn 0.000000 -1.000000 -0.000000
vn 0.000000 -1.000000 -0.000000
vn 0.000000 1.000000 0.000000
vn 0.000000 1.000000 0.000000
vn -0.042164 -0.990648 0.129765
vn -0.110387 -0.990648 0.080194
vn 0.042167 0.990646 -0.129779
vn 0.110394 0.990646 -0.080206
vn 0.110394 0.990646 -0.080206
vn 0.042167 0.990646 -0.129779
vn 0.042164 -0.990647 0.129773
vn -0.042167 0.990646 -0.129778
vn -0.042167 0.990646 -0.129778
vn 0.110386 -0.990647 0.080202
vn -0.110394 0.990646 -0.080206
vn -0.110394 0.990646 -0.080206
vn 0.136446 -0.990648 0.000001
vn -0.136454 0.990646 -0.000000
vn -0.136454 0.990646 -0.000000
vn 0.110387 -0.990648 -0.080199
vn -0.110393 0.990647 0.080203
vn -0.110393 0.990647 0.080203
vn 0.042164 -0.990648 -0.129765
vn -0.042167 0.990647 0.129774
vn -0.042167 0.990647 0.129774
vn -0.042164 -0.990648 -0.129763
vn 0.042167 0.990646 0.129776
vn 0.042167 0.990646 0.129776
vn -0.110387 -0.990648 -0.080198
vn 0.110394 0.990646 0.080206
vn 0.110394 0.990646 0.080206
vn -0.136446 -0.990647 -0.000001
vn 0.136454 0.990646 0.000000
vn 0.136454 0.990646 0.000000
vn 0.136437 -0.990649 0.000002
vn 0.110380 -0.990649 -0.080196
vn 0.110380 -0.990649 -0.080196
vn 0.136437 -0.990649 0.000002
vn -0.136438 0.990649 -0.000001
vn -0.110380 0.990649 0.080195
vn 0.110380 -0.990649 0.080195
vn 0.110380 -0.990649 0.080195
vn -0.110380 0.990649 -0.080193
vn 0.042161 -0.990649 0.129757
vn 0.042161 -0.990649 0.129757
vn -0.042161 0.990649 -0.129754
vn -0.042161 -0.990649 0.129757
vn -0.042161 -0.990649 0.129757
vn 0.042161 0.990649 -0.129758
vn -0.110379 -0.990649 0.080194
vn -0.110379 -0.990649 0.080194
vn 0.110381 0.990649 -0.080197
vn -0.136437 -0.990649 0.000000
vn -0.136437 -0.990649 0.000000
vn 0.136437 0.990649 -0.000002
vn -0.110380 -0.990649 -0.080197
vn -0.110380 -0.990649 -0.080197
vn 0.110379 0.990649 0.080191
vn -0.042161 -0.990649 -0.129762
vn -0.042161 -0.990649 -0.129762
vn 0.042161 0.990649 0.129760
vn 0.042161 -0.990648 -0.129762
vn 0.042161 -0.990648 -0.129762
vn -0.042161 0.990648 0.129763
s off
g pPrism1
usemtl initialShadingGroup
f 81/54/1 82/219/2 83/228/3 84/55/4
f 82/219/5 85/220/6 86/229/7 83/228/8
f 85/56/9 87/58/10 88/59/11 86/57/12
f 87/58/13 89/60/14 90/61/15 88/59/16
f 89/60/17 91/62/18 92/63/19 90/61/20
f 91/62/21 93/64/22 94/65/23 92/63/24
f 93/64/25 95/66/26 96/67/27 94/65/28
f 95/66/29 97/68/30 98/69/31 96/67/32
f 97/68/33 99/70/34 100/71/35 98/69/36
f 99/70/37 81/54/38 84/55/39 100/71/40
s 1
f 1/1/41 10/10/42 9/9/43 8/8/44 7/7/45 6/6/46 5/5/47 4/4/48 3/3/49 2/2/50
s 2
f 11/41/51 12/40/52 13/39/53 14/38/54 15/37/55 16/36/56 17/35/57 18/34/58 19/33/59 20/42/60
s off
f 102/149/61 101/150/62 103/151/63 104/152/64
f 105/153/65 102/149/66 104/152/67 106/154/68
f 107/155/69 105/153/70 106/154/71 108/156/72
f 109/157/73 107/155/74 108/156/75 110/158/76
f 111/159/77 109/157/78 110/158/79 112/160/80
f 113/161/81 111/159/82 112/160/83 114/162/84
f 115/163/85 113/161/86 114/162/87 116/164/88
f 117/165/89 115/163/90 116/164/91 118/166/92
f 119/168/93 117/169/94 118/170/95 120/167/96
f 101/150/97 119/168/98 120/167/99 103/151/100
f 32/43/101 31/44/102 53/45/103 54/46/104
f 33/47/105 32/43/106 54/46/107 55/48/108
f 34/49/109 33/47/110 55/48/111 56/50/112
f 35/51/113 34/49/114 56/50/115 57/52/116
f 36/53/117 35/51/118 57/52/119 58/182/120
f 37/183/121 36/53/122 58/182/123 59/184/124
f 38/185/125 37/183/126 59/184/127 60/186/128
f 39/187/129 38/185/130 60/186/131 51/188/132
f 40/209/133 39/210/134 51/211/135 52/189/136
f 31/44/137 40/209/138 52/189/139 53/45/140
f 42/212/141 41/213/142 29/214/143 30/192/144
f 43/193/145 42/212/146 30/192/147 21/194/148
f 44/195/149 43/193/150 21/194/151 22/196/152
f 45/197/153 44/195/154 22/196/155 23/198/156
f 46/199/157 45/197/158 23/198/159 24/200/160
f 47/201/161 46/199/162 24/200/163 25/202/164
f 48/203/165 47/201/166 25/202/167 26/204/168
f 49/205/169 48/203/170 26/204/171 27/206/172
f 50/207/173 49/205/174 27/206/175 28/208/176
f 41/190/177 50/207/178 28/208/179 29/191/180
f 62/72/181 61/221/182 63/225/183 64/75/184
f 65/76/185 62/72/186 64/75/187 66/77/188
f 67/78/189 65/76/190 66/77/191 68/79/192
f 69/80/193 67/78/194 68/79/195 70/81/196
f 71/82/197 69/80/198 70/81/199 72/83/200
f 73/84/201 71/82/202 72/83/203 74/85/204
f 75/86/205 73/84/206 74/85/207 76/87/208
f 77/88/209 75/86/210 76/87/211 78/89/212
f 79/90/213 77/88/214 78/89/215 80/91/216
f 61/73/217 79/90/218 80/91/219 63/74/220
s 3
f 52/92/221 51/222/222 61/221/223 62/72/224
s 4
f 41/223/225 42/224/226 64/75/227 63/225/228
s 3
f 53/95/229 52/92/221 62/72/224 65/76/230
s 4
f 42/224/226 43/96/231 66/77/232 64/75/227
s 3
f 54/97/233 53/95/229 65/76/230 67/78/234
s 4
f 43/96/231 44/98/235 68/79/236 66/77/232
s 3
f 55/99/237 54/97/233 67/78/234 69/80/238
s 4
f 44/98/235 45/100/239 70/81/240 68/79/236
s 3
f 56/101/241 55/99/237 69/80/238 71/82/242
s 4
f 45/100/239 46/102/243 72/83/244 70/81/240
s 3
f 57/103/245 56/101/241 71/82/242 73/84/246
s 4
f 46/102/243 47/104/247 74/85/248 72/83/244
s 3
f 58/105/249 57/103/245 73/84/246 75/86/250
s 4
f 47/104/247 48/108/251 76/87/252 74/85/248
s 3
f 59/109/253 58/105/249 75/86/250 77/88/254
s 4
f 48/108/251 49/111/255 78/89/256 76/87/252
s 3
f 60/113/257 59/109/253 77/88/254 79/90/258
s 4
f 49/111/255 50/115/259 80/91/260 78/89/256
s 3
f 51/93/222 60/113/257 79/90/258 61/73/223
s 4
f 50/115/259 41/94/225 63/74/228 80/91/260
s 1
f 1/11/41 2/12/50 82/107/261 81/106/262
s 5
f 40/227/263 31/118/264 84/55/265 83/228/266
s 1
f 2/12/50 3/13/49 85/110/267 82/107/261
s 5
f 39/226/268 40/227/263 83/228/266 86/229/269
s 1
f 3/13/49 4/14/48 87/112/270 85/110/267
s 5
f 38/122/271 39/120/268 86/57/269 88/59/272
s 1
f 4/14/48 5/15/47 89/114/273 87/112/270
s 5
f 37/124/274 38/122/271 88/59/272 90/61/275
s 1
f 5/15/47 6/16/46 91/116/276 89/114/273
s 5
f 36/126/277 37/124/274 90/61/275 92/63/278
s 1
f 6/16/46 7/17/45 93/117/279 91/116/276
s 5
f 35/215/280 36/126/277 92/63/278 94/65/281
s 1
f 7/17/45 8/18/44 95/119/282 93/117/279
s 5
f 34/216/283 35/215/280 94/65/281 96/67/284
s 1
f 8/18/44 9/19/43 97/121/285 95/119/282
s 5
f 33/217/286 34/216/283 96/67/284 98/69/287
s 1
f 9/19/43 10/20/42 99/123/288 97/121/285
s 5
f 32/218/289 33/217/286 98/69/287 100/71/290
s 1
f 10/20/42 1/21/41 81/125/262 99/123/288
s 5
f 31/118/264 32/218/289 100/71/290 84/55/265
s 6
f 22/127/291 21/128/292 101/131/293 102/133/294
s 2
f 11/32/51 20/31/60 104/130/295 103/129/296
s 6
f 23/135/297 22/127/291 102/133/294 105/137/298
s 2
f 20/31/60 19/30/59 106/132/299 104/130/295
s 6
f 24/139/300 23/135/297 105/137/298 107/141/301
s 2
f 19/30/59 18/29/58 108/134/302 106/132/299
s 6
f 25/143/303 24/139/300 107/141/301 109/145/304
s 2
f 18/29/58 17/28/57 110/136/305 108/134/302
s 6
f 26/147/306 25/143/303 109/145/304 111/171/307
s 2
f 17/28/57 16/27/56 112/138/308 110/136/305
s 6
f 27/172/309 26/147/306 111/171/307 113/173/310
s 2
f 16/27/56 15/26/55 114/140/311 112/138/308
s 6
f 28/174/312 27/172/309 113/173/310 115/175/313
s 2
f 15/26/55 14/25/54 116/142/314 114/140/311
s 6
f 29/176/315 28/174/312 115/175/313 117/177/316
s 2
f 14/25/54 13/24/53 118/144/317 116/142/314
s 6
f 30/178/318 29/180/315 117/181/316 119/179/319
s 2
f 13/24/53 12/23/52 120/146/320 118/144/317
s 6
f 21/128/292 30/178/318 119/179/319 101/131/293
s 2
f 12/23/52 11/22/51 103/148/296 120/146/320
