# This file uses centimeters as units for non-parametric coordinates.

mtllib Ship_Debris.mtl
g default
v -11.025080 44.917343 -55.073563
v -11.025079 26.383539 -55.073559
v -11.025078 26.383539 -65.692352
v -11.025078 44.917343 -65.692352
v -2.722968 26.383543 -72.313065
v -2.722967 44.917343 -72.313065
v 7.629586 26.383539 -69.950157
v 7.629591 44.917343 -69.950157
v 12.236915 26.383539 -60.382957
v 12.236913 44.917343 -60.382957
v 7.629589 26.383539 -50.815746
v 7.629591 44.917343 -50.815750
v -2.722970 26.383539 -48.452847
v -2.722970 44.917343 -48.452850
v 19.469774 44.917343 -60.382957
v 12.139207 44.917343 -75.605034
v 12.139207 44.917343 -45.160870
v -4.332433 44.917343 -41.401333
v -17.541662 44.917343 -51.935341
v -17.541658 44.917343 -68.830566
v -4.332431 44.917343 -79.364594
v 12.139201 26.383539 -75.605042
v 19.469774 26.383539 -60.382957
v 12.139201 26.383539 -45.160866
v -4.332432 26.383539 -41.401329
v -17.541656 26.383539 -51.935341
v -17.541655 26.383539 -68.830566
v -4.332430 26.383539 -79.364578
v 0.000000 66.509834 -114.972717
v 0.000000 47.190819 -114.972717
v 0.000000 47.190819 -5.821793
v 0.000000 66.509834 -5.821793
v -33.729485 41.220917 -60.397251
v 33.729485 41.220917 -60.397251
v 33.729481 72.479744 -60.397251
v -33.729485 72.479744 -60.397251
v -54.575459 56.850330 -26.667755
v -54.575459 56.850330 -94.126740
v 54.575459 56.850330 -94.126740
v 54.575459 56.850330 -26.667755
v 60.290302 56.850330 -60.397251
v -60.290302 56.850330 -60.397251
v -48.775875 65.483353 -41.766533
v 48.775875 65.483353 -41.766533
v 18.630726 70.818848 -30.252087
v -18.630724 70.818848 -30.252087
v 48.775875 48.217312 -41.766533
v -48.775875 48.217312 -41.766533
v -18.630726 42.881813 -30.252087
v 18.630724 42.881813 -30.252087
v 30.145151 62.185829 -11.621372
v 30.145151 51.514832 -11.621372
v 0.000000 56.850330 -0.106956
v -30.145151 51.514832 -11.621372
v -30.145151 62.185829 -11.621372
v 48.775875 48.217312 -79.027977
v -48.775875 48.217312 -79.027977
v 0.000000 39.584290 -60.397251
v 18.630726 42.881813 -90.542404
v -18.630724 42.881813 -90.542404
v -48.775875 65.483353 -79.027977
v 48.775871 65.483360 -79.027977
v 18.630720 70.818848 -90.542404
v -18.630726 70.818848 -90.542404
v 30.145151 51.514832 -109.173126
v 30.145151 62.185829 -109.173126
v 0.000000 56.850330 -120.687546
v -30.145151 62.185829 -109.173126
v -30.145151 51.514832 -109.173126
v 0.000000 47.190819 -114.972656
v -30.145155 51.514809 -109.173126
v -54.575459 56.850319 -94.126709
v -30.145151 62.185810 -109.173096
v 0.000004 66.509834 -114.972702
v 0.000002 56.850319 -120.687546
v 30.145151 62.185822 -109.173126
v 54.575459 56.850330 -94.126740
v 30.145151 51.514832 -109.173126
v -18.630726 70.818840 -90.542389
v -33.729485 72.479736 -60.397251
v 33.729481 72.479736 -60.397259
v 18.630728 70.818832 -90.542389
v 48.775875 65.483345 -79.027962
v -48.775875 65.483337 -79.028030
v -33.729488 41.220917 -60.397327
v -18.630724 42.881802 -90.542435
v 18.630726 42.881813 -90.542458
v 33.729488 41.220894 -60.397327
v -48.775875 48.217293 -79.028046
v 48.775875 48.217312 -79.027977
v 0.000004 66.509827 -5.821785
v -30.145151 62.185822 -11.621361
v -54.575459 56.850319 -26.667755
v -30.145151 51.514809 -11.621372
v -0.000002 47.190811 -5.821785
v 0.000004 56.850330 -0.107029
v 30.145151 51.514820 -11.621361
v 54.575459 56.850319 -26.667747
v 30.145155 62.185822 -11.621380
v 18.630728 42.881802 -30.252073
v -18.630722 42.881802 -30.252096
v -48.775875 48.217300 -41.766544
v 48.775875 48.217293 -41.766533
v -18.630728 70.818840 -30.252073
v 18.630735 70.818840 -30.252087
v 48.775841 65.483345 -41.766567
v -48.775883 65.483345 -41.766533
v -60.290268 56.850319 -60.397232
v 60.290337 56.850319 -60.397282
v 33.729485 47.562664 -60.397251
v 0.000000 49.199295 -60.397251
v 18.630726 45.901772 -30.252087
v -18.630724 45.901772 -30.252087
v -33.729485 47.562664 -60.397251
v 18.630724 45.901772 -90.542404
v -18.630726 45.901772 -90.542404
vt 0.837310 0.418310
vt 0.837311 0.302551
vt 0.807562 0.302551
vt 0.807562 0.418310
vt 0.807562 0.418310
vt 0.807562 0.302551
vt 0.777812 0.302550
vt 0.777812 0.418310
vt 0.777812 0.418309
vt 0.777813 0.302551
vt 0.748063 0.302550
vt 0.748063 0.418310
vt 0.926558 0.302551
vt 0.926558 0.418310
vt 0.956308 0.418310
vt 0.956308 0.302551
vt 0.926558 0.418310
vt 0.926558 0.302551
vt 0.896809 0.302551
vt 0.896809 0.418310
vt 0.896809 0.418309
vt 0.896809 0.302551
vt 0.867060 0.302550
vt 0.867060 0.418310
vt 0.867060 0.418310
vt 0.867060 0.302551
vt 0.837311 0.302551
vt 0.837311 0.418310
vt 0.542012 0.424964
vt 0.575851 0.354697
vt 0.628975 0.356822
vt 0.575134 0.468623
vt 0.575851 0.354697
vt 0.542012 0.284429
vt 0.575134 0.245020
vt 0.542012 0.284429
vt 0.465976 0.267074
vt 0.454155 0.217408
vt 0.465976 0.267074
vt 0.405000 0.315701
vt 0.357138 0.294777
vt 0.405000 0.315701
vt 0.405000 0.393692
vt 0.357138 0.418867
vt 0.405000 0.393692
vt 0.465976 0.442320
vt 0.454156 0.496235
vt 0.465976 0.442320
vt 0.542012 0.424964
vt 0.286952 0.352545
vt 0.253113 0.282278
vt 0.286234 0.242869
vt 0.340074 0.354670
vt 0.253113 0.422814
vt 0.286952 0.352545
vt 0.286234 0.466472
vt 0.177076 0.440168
vt 0.253113 0.422814
vt 0.165255 0.494084
vt 0.116100 0.391541
vt 0.177076 0.440168
vt 0.068238 0.416715
vt 0.116100 0.313550
vt 0.116100 0.391541
vt 0.068238 0.292625
vt 0.177076 0.264923
vt 0.116100 0.313550
vt 0.165255 0.215257
vt 0.253113 0.282278
vt 0.177076 0.264923
vt 0.926558 0.166016
vt 0.956308 0.166016
vt 0.956308 0.479165
vt 0.926558 0.479165
vt 0.896809 0.166016
vt 0.896809 0.479165
vt 0.867060 0.166016
vt 0.867060 0.479165
vt 0.837310 0.166016
vt 0.837310 0.479165
vt 0.807562 0.166016
vt 0.807562 0.479165
vt 0.777812 0.166016
vt 0.777812 0.479165
vt 0.748063 0.166016
vt 0.748063 0.479165
vt 0.263350 0.954423
vt 0.146265 0.931897
vt 0.263350 0.976620
vt 0.752484 0.954423
vt 0.869569 0.931897
vt 0.752484 0.976620
vt 0.680121 0.859534
vt 0.824847 0.859534
vt 0.635398 0.931897
vt 0.132343 0.742449
vt 0.190987 0.859534
vt 0.263350 0.742449
vt 0.051376 0.873456
vt 0.073902 0.814811
vt 0.380436 0.931897
vt 0.335713 0.859534
vt 0.752484 0.530474
vt 0.635398 0.553000
vt 0.752484 0.508277
vt 0.263350 0.530474
vt 0.380436 0.553000
vt 0.263350 0.508277
vt 0.190987 0.625363
vt 0.146265 0.553000
vt 0.394357 0.742449
vt 0.452798 0.670086
vt 0.335713 0.625363
vt 0.883491 0.742449
vt 0.752484 0.742449
vt 0.824847 0.625363
vt 0.869569 0.553000
vt 0.824847 0.625363
vt 0.680121 0.625363
vt 0.073902 0.670086
vt 0.452798 0.814811
vt 0.883491 0.742449
vt 0.941932 0.670086
vt 0.941932 0.814811
vt 0.621476 0.742449
vt 0.563035 0.814811
vt 0.563035 0.670086
vt 0.518313 0.742449
vt 0.540509 0.611441
vt 0.540509 0.873456
vt 0.986655 0.742449
vt 0.964458 0.873456
vt 0.964458 0.611441
vt 0.497521 0.742449
vt 0.475324 0.611441
vt 0.475324 0.873456
vt 0.029179 0.742449
vt 0.051376 0.611441
vt 0.680121 0.625363
vt 0.621476 0.742449
vt 0.380436 0.553000
vt 0.146265 0.553000
vt 0.824847 0.859534
vt 0.680121 0.859534
vt 0.380436 0.931897
vt 0.146265 0.931897
vt 0.752484 0.954423
vt 0.635398 0.931897
vt 0.635398 0.931897
vt 0.752484 0.954423
vt 0.635398 0.931897
vt 0.540509 0.873456
vt 0.752484 0.976620
vt 0.752484 0.954423
vt 0.869569 0.931897
vt 0.869569 0.931897
vt 0.869569 0.931897
vt 0.964458 0.873456
vt 0.680121 0.859534
vt 0.824847 0.859534
vt 0.883491 0.742449
vt 0.941932 0.814811
vt 0.563035 0.814812
vt 0.621476 0.742449
vt 0.680121 0.859534
vt 0.680121 0.859534
vt 0.621476 0.742449
vt 0.824847 0.859534
vt 0.824847 0.859534
vt 0.563035 0.814811
vt 0.563035 0.814812
vt 0.941932 0.814811
vt 0.941932 0.814811
vt 0.635398 0.553000
vt 0.752484 0.530474
vt 0.635398 0.553000
vt 0.635398 0.553000
vt 0.540509 0.611441
vt 0.752484 0.530474
vt 0.752484 0.508278
vt 0.752484 0.530474
vt 0.869569 0.553000
vt 0.869569 0.553000
vt 0.869569 0.553000
vt 0.964458 0.611441
vt 0.883491 0.742449
vt 0.824847 0.625363
vt 0.824847 0.625363
vt 0.883491 0.742449
vt 0.680121 0.625363
vt 0.680121 0.625363
vt 0.563035 0.670086
vt 0.563035 0.670086
vt 0.941932 0.670086
vt 0.941932 0.670086
vt 0.680121 0.625363
vt 0.621476 0.742449
vt 0.824847 0.625363
vt 0.941932 0.670086
vt 0.563035 0.670086
vt 0.518313 0.742448
vt 0.986655 0.742449
vt 0.519681 0.125579
vt 0.660529 0.131405
vt 0.660529 0.044010
vt 0.519681 0.038184
vt 0.225534 0.131405
vt 0.366382 0.125579
vt 0.366382 0.038184
vt 0.225534 0.044010
vt 0.801377 0.125579
vt 0.801377 0.038184
vt 0.084686 0.125579
vt 0.084686 0.038184
vt 0.954676 0.125579
vt 0.954676 0.038184
vn 1.000000 0.000000 0.000000
vn 1.000000 0.000000 0.000000
vn 1.000000 0.000000 0.000000
vn 1.000000 0.000000 0.000000
vn 0.623490 0.000000 0.781832
vn 0.623490 0.000000 0.781832
vn 0.623490 0.000000 0.781832
vn 0.623490 0.000000 0.781832
vn -0.222521 0.000000 0.974928
vn -0.222521 0.000000 0.974928
vn -0.222521 0.000000 0.974928
vn -0.222521 0.000000 0.974928
vn -0.900969 0.000000 0.433884
vn -0.900969 0.000000 0.433884
vn -0.900969 0.000000 0.433884
vn -0.900969 0.000000 0.433884
vn -0.900969 0.000000 -0.433884
vn -0.900969 0.000000 -0.433884
vn -0.900969 0.000000 -0.433884
vn -0.900969 0.000000 -0.433884
vn -0.222521 0.000000 -0.974928
vn -0.222521 0.000000 -0.974928
vn -0.222521 0.000000 -0.974928
vn -0.222521 0.000000 -0.974928
vn 0.623490 0.000000 -0.781832
vn 0.623490 0.000000 -0.781832
vn 0.623490 0.000000 -0.781832
vn 0.623490 0.000000 -0.781832
vn 0.000000 1.000000 0.000000
vn 0.000000 1.000000 0.000000
vn 0.000000 1.000000 0.000000
vn 0.000000 1.000000 0.000000
vn 0.000000 1.000000 0.000000
vn 0.000000 1.000000 0.000000
vn 0.000000 1.000000 0.000000
vn 0.000000 1.000000 0.000000
vn 0.000000 1.000000 0.000000
vn 0.000000 1.000000 0.000000
vn 0.000000 1.000000 0.000000
vn 0.000000 1.000000 0.000000
vn 0.000000 1.000000 0.000000
vn 0.000000 1.000000 0.000000
vn 0.000000 1.000000 0.000000
vn 0.000000 1.000000 0.000000
vn 0.000000 1.000000 0.000000
vn 0.000000 1.000000 0.000000
vn 0.000000 1.000000 0.000000
vn 0.000000 1.000000 0.000000
vn 0.000000 1.000000 0.000000
vn 0.000000 1.000000 0.000000
vn 0.000000 1.000000 0.000000
vn 0.000000 1.000000 0.000000
vn 0.000000 1.000000 0.000000
vn 0.000000 1.000000 0.000000
vn 0.000000 1.000000 0.000000
vn 0.000000 1.000000 0.000000
vn 0.000000 -1.000000 0.000000
vn 0.000000 -1.000000 0.000000
vn 0.000000 -1.000000 0.000000
vn 0.000000 -1.000000 0.000000
vn 0.000000 -1.000000 0.000000
vn 0.000000 -1.000000 0.000000
vn 0.000000 -1.000000 0.000000
vn 0.000000 -1.000000 0.000000
vn 0.000000 -1.000000 0.000000
vn 0.000000 -1.000000 0.000000
vn 0.000000 -1.000000 0.000000
vn 0.000000 -1.000000 0.000000
vn 0.000000 -1.000000 0.000000
vn 0.000000 -1.000000 0.000000
vn 0.000000 -1.000000 0.000000
vn 0.000000 -1.000000 0.000000
vn 0.000000 -1.000000 0.000000
vn 0.000000 -1.000000 0.000000
vn 0.000000 -1.000000 0.000000
vn 0.000000 -1.000000 0.000000
vn 0.000000 -1.000000 0.000000
vn 0.000000 -1.000000 0.000000
vn 0.000000 -1.000000 0.000000
vn 0.000000 -1.000000 0.000000
vn 0.000000 -1.000000 0.000001
vn 0.000000 -1.000000 0.000001
vn 0.000000 -1.000000 0.000001
vn 0.000000 -1.000000 0.000001
vn 0.900969 0.000000 -0.433884
vn 0.900969 0.000000 -0.433884
vn 0.900969 0.000000 -0.433884
vn 0.900969 0.000000 -0.433884
vn 0.900969 0.000000 0.433884
vn 0.900969 0.000000 0.433884
vn 0.900969 0.000000 0.433884
vn 0.900969 0.000000 0.433884
vn 0.222521 0.000000 0.974928
vn 0.222521 0.000000 0.974928
vn 0.222521 0.000000 0.974928
vn 0.222521 0.000000 0.974928
vn -0.623490 0.000000 0.781831
vn -0.623490 0.000000 0.781831
vn -0.623490 0.000000 0.781831
vn -0.623490 0.000000 0.781831
vn -1.000000 0.000000 0.000000
vn -1.000000 0.000000 0.000000
vn -1.000000 0.000000 0.000000
vn -1.000000 0.000000 0.000000
vn -0.623490 0.000000 -0.781831
vn -0.623490 0.000000 -0.781831
vn -0.623490 0.000000 -0.781831
vn -0.623490 0.000000 -0.781831
vn 0.222521 0.000000 -0.974928
vn 0.222521 0.000000 -0.974928
vn 0.222521 0.000000 -0.974928
vn 0.222521 0.000000 -0.974928
vn -0.232102 -0.495282 -0.837152
vn -0.232102 -0.495282 -0.837152
vn -0.232102 -0.495282 -0.837152
vn 0.232102 0.495282 -0.837152
vn 0.232102 0.495282 -0.837152
vn 0.232102 0.495282 -0.837152
vn 0.000000 0.984799 -0.173699
vn 0.000000 0.984799 -0.173699
vn 0.000000 0.984799 -0.173699
vn 0.193390 0.930335 -0.311573
vn 0.193390 0.930335 -0.311573
vn 0.193390 0.930335 -0.311573
vn -0.193390 0.930335 -0.311572
vn -0.193390 0.930335 -0.311572
vn -0.193390 0.930335 -0.311572
vn -0.048313 -0.995699 -0.079058
vn -0.048313 -0.995699 -0.079058
vn -0.048313 -0.995699 -0.079058
vn -0.394403 -0.854811 -0.337260
vn -0.394403 -0.854811 -0.337260
vn -0.394403 -0.854811 -0.337260
vn 0.193390 -0.930335 -0.311573
vn 0.193390 -0.930335 -0.311573
vn 0.193390 -0.930335 -0.311573
vn -0.232102 0.495283 0.837152
vn -0.232102 0.495283 0.837152
vn -0.232102 0.495283 0.837152
vn 0.232102 -0.495283 0.837152
vn 0.232102 -0.495283 0.837152
vn 0.232102 -0.495283 0.837152
vn -0.048313 -0.995699 0.079058
vn -0.048313 -0.995699 0.079058
vn -0.048313 -0.995699 0.079058
vn -0.193390 -0.930335 0.311573
vn -0.193390 -0.930335 0.311573
vn -0.193390 -0.930335 0.311573
vn 0.234393 -0.957138 0.170135
vn 0.234393 -0.957138 0.170135
vn 0.234393 -0.957138 0.170135
vn 0.048313 0.995699 0.079058
vn 0.048313 0.995699 0.079058
vn 0.048313 0.995699 0.079058
vn 0.193390 0.930335 0.311572
vn 0.193390 0.930335 0.311572
vn 0.193390 0.930335 0.311572
vn -0.193390 0.930335 0.311573
vn -0.193390 0.930335 0.311573
vn -0.193390 0.930335 0.311573
vn -0.421635 -0.906766 0.000000
vn -0.421635 -0.906766 0.000000
vn -0.421635 -0.906766 0.000000
vn 0.421635 -0.906766 0.000000
vn 0.421635 -0.906766 0.000000
vn 0.421635 -0.906766 0.000000
vn 0.421635 0.906766 0.000000
vn 0.421635 0.906766 0.000000
vn 0.421635 0.906766 0.000000
vn -0.421635 0.906766 0.000000
vn -0.421635 0.906766 0.000000
vn -0.421635 0.906766 0.000000
vn -0.713202 0.690465 0.120839
vn -0.713202 0.690464 0.120839
vn -0.713202 0.690465 0.120839
vn -0.713202 0.690464 -0.120839
vn -0.713202 0.690464 -0.120839
vn -0.713202 0.690464 -0.120839
vn -0.599876 0.800093 0.000000
vn -0.599876 0.800093 0.000000
vn -0.599876 0.800093 0.000000
vn 0.713202 0.690464 -0.120839
vn 0.713202 0.690464 -0.120839
vn 0.713202 0.690464 -0.120839
vn 0.713202 0.690464 0.120839
vn 0.713202 0.690465 0.120839
vn 0.713202 0.690465 0.120839
vn 0.599876 0.800093 0.000000
vn 0.599876 0.800093 0.000000
vn 0.599876 0.800093 0.000000
vn 0.713202 -0.690465 0.120839
vn 0.713202 -0.690465 0.120839
vn 0.713202 -0.690465 0.120839
vn 0.713202 -0.690464 -0.120839
vn 0.713202 -0.690464 -0.120839
vn 0.713202 -0.690464 -0.120839
vn 0.599876 -0.800093 0.000000
vn 0.599876 -0.800093 0.000000
vn 0.599876 -0.800093 0.000000
vn -0.713202 -0.690464 -0.120839
vn -0.713202 -0.690464 -0.120839
vn -0.713202 -0.690464 -0.120839
vn -0.713202 -0.690465 0.120839
vn -0.713202 -0.690465 0.120839
vn -0.713202 -0.690465 0.120839
vn -0.599876 -0.800093 0.000000
vn -0.599876 -0.800093 0.000000
vn -0.599876 -0.800093 0.000000
vn -0.394404 0.854810 0.337261
vn -0.394403 0.854811 0.337261
vn -0.394404 0.854810 0.337261
vn -0.234393 0.957138 0.170135
vn -0.234393 0.957138 0.170135
vn -0.234393 0.957138 0.170135
vn -0.265438 0.926869 0.265438
vn -0.265438 0.926869 0.265438
vn -0.265438 0.926869 0.265438
vn 0.234393 0.957138 0.170135
vn 0.234393 0.957138 0.170135
vn 0.234393 0.957138 0.170135
vn 0.394403 0.854811 0.337261
vn 0.394403 0.854811 0.337261
vn 0.394403 0.854811 0.337261
vn 0.265438 0.926869 0.265438
vn 0.265438 0.926869 0.265438
vn 0.265438 0.926869 0.265438
vn 0.000000 0.984799 0.173699
vn 0.000000 0.984799 0.173699
vn 0.000000 0.984799 0.173699
vn -0.048313 0.995699 0.079058
vn -0.048313 0.995699 0.079058
vn -0.048313 0.995699 0.079058
vn 0.000000 0.994070 0.108739
vn 0.000000 0.994070 0.108739
vn 0.000000 0.994070 0.108739
vn 0.193390 -0.930335 0.311573
vn 0.193390 -0.930335 0.311573
vn 0.193390 -0.930335 0.311573
vn 0.394403 -0.854811 0.337260
vn 0.394403 -0.854811 0.337260
vn 0.394403 -0.854811 0.337260
vn 0.265438 -0.926869 0.265438
vn 0.265438 -0.926869 0.265438
vn 0.265438 -0.926869 0.265438
vn -0.234393 -0.957138 0.170135
vn -0.234393 -0.957138 0.170135
vn -0.234393 -0.957138 0.170135
vn -0.394404 -0.854811 0.337260
vn -0.394404 -0.854811 0.337260
vn -0.394404 -0.854811 0.337260
vn -0.265438 -0.926868 0.265439
vn -0.265438 -0.926868 0.265439
vn -0.265438 -0.926868 0.265439
vn 0.000000 -0.984799 0.173698
vn 0.000000 -0.984799 0.173698
vn 0.000000 -0.984799 0.173698
vn 0.048313 -0.995699 0.079058
vn 0.048313 -0.995699 0.079058
vn 0.048313 -0.995699 0.079058
vn 0.000000 -0.994070 0.108740
vn 0.000000 -0.994070 0.108740
vn 0.000000 -0.994070 0.108740
vn 0.232102 0.495283 0.837152
vn 0.232102 0.495283 0.837152
vn 0.232102 0.495283 0.837152
vn 0.524409 0.000000 0.851466
vn 0.524409 0.000000 0.851466
vn 0.524409 0.000000 0.851467
vn 0.356822 0.000000 0.934173
vn 0.356822 0.000000 0.934172
vn 0.356822 0.000000 0.934172
vn -0.232102 -0.495283 0.837152
vn -0.232102 -0.495283 0.837152
vn -0.232102 -0.495283 0.837152
vn -0.524409 0.000000 0.851466
vn -0.524409 0.000000 0.851466
vn -0.524409 0.000000 0.851467
vn -0.356822 0.000000 0.934173
vn -0.356822 0.000000 0.934172
vn -0.356822 0.000000 0.934172
vn 0.234393 -0.957138 -0.170135
vn 0.234393 -0.957138 -0.170135
vn 0.234393 -0.957138 -0.170135
vn 0.394403 -0.854811 -0.337260
vn 0.394403 -0.854811 -0.337260
vn 0.394403 -0.854811 -0.337260
vn 0.265438 -0.926868 -0.265439
vn 0.265438 -0.926868 -0.265439
vn 0.265438 -0.926868 -0.265439
vn -0.234393 -0.957138 -0.170135
vn -0.234393 -0.957138 -0.170135
vn -0.234393 -0.957138 -0.170135
vn -0.193390 -0.930335 -0.311573
vn -0.193390 -0.930335 -0.311573
vn -0.193390 -0.930335 -0.311573
vn -0.265438 -0.926869 -0.265438
vn -0.265438 -0.926869 -0.265438
vn -0.265438 -0.926869 -0.265438
vn 0.048313 -0.995699 -0.079058
vn 0.048313 -0.995699 -0.079058
vn 0.048313 -0.995699 -0.079058
vn 0.000000 -0.984799 -0.173698
vn 0.000000 -0.984799 -0.173698
vn 0.000000 -0.984799 -0.173698
vn 0.000000 -0.994070 -0.108740
vn 0.000000 -0.994070 -0.108740
vn 0.000000 -0.994070 -0.108740
vn -0.234393 0.957138 -0.170135
vn -0.234393 0.957138 -0.170135
vn -0.234393 0.957138 -0.170135
vn -0.394403 0.854811 -0.337261
vn -0.394403 0.854811 -0.337261
vn -0.394403 0.854811 -0.337261
vn -0.265438 0.926869 -0.265438
vn -0.265438 0.926869 -0.265438
vn -0.265438 0.926869 -0.265438
vn 0.394403 0.854811 -0.337261
vn 0.394403 0.854811 -0.337261
vn 0.394403 0.854811 -0.337261
vn 0.234393 0.957138 -0.170135
vn 0.234393 0.957138 -0.170135
vn 0.234393 0.957138 -0.170135
vn 0.265438 0.926869 -0.265438
vn 0.265438 0.926869 -0.265438
vn 0.265438 0.926869 -0.265438
vn 0.048313 0.995699 -0.079059
vn 0.048313 0.995699 -0.079059
vn 0.048313 0.995699 -0.079059
vn -0.048313 0.995699 -0.079059
vn -0.048313 0.995699 -0.079059
vn -0.048313 0.995699 -0.079059
vn 0.000000 0.994070 -0.108739
vn 0.000000 0.994070 -0.108739
vn 0.000000 0.994070 -0.108739
vn 0.232102 -0.495282 -0.837152
vn 0.232102 -0.495282 -0.837152
vn 0.232102 -0.495282 -0.837152
vn 0.524409 0.000000 -0.851466
vn 0.524409 0.000000 -0.851466
vn 0.524409 0.000000 -0.851466
vn 0.356822 0.000000 -0.934172
vn 0.356822 0.000000 -0.934172
vn 0.356822 0.000000 -0.934172
vn -0.232102 0.495282 -0.837152
vn -0.232102 0.495282 -0.837152
vn -0.232102 0.495282 -0.837152
vn -0.524409 0.000000 -0.851466
vn -0.524409 0.000000 -0.851466
vn -0.524409 0.000000 -0.851466
vn -0.356822 0.000000 -0.934172
vn -0.356822 0.000000 -0.934172
vn -0.356822 0.000000 -0.934172
vn 0.174885 0.867136 0.466359
vn 0.174885 0.867136 0.466359
vn 0.174885 0.867136 0.466359
vn 0.174885 0.867136 0.466359
vn -0.098336 -0.894241 -0.436651
vn -0.098336 -0.894241 -0.436651
vn -0.098336 -0.894241 -0.436651
vn -0.098336 -0.894241 -0.436651
vn -0.966389 -0.130905 0.221262
vn -0.966389 -0.130905 0.221262
vn -0.966389 -0.130905 0.221262
vn -0.966389 -0.130905 0.221262
vn 0.000000 -0.649596 -0.760279
vn 0.000000 -0.649596 -0.760279
vn 0.000000 -0.649596 -0.760279
vn 0.000000 -0.649596 -0.760279
vn 0.000000 0.000000 0.000000
vn 0.000000 0.000000 0.000000
vn 0.000000 0.000000 0.000000
vn 0.000000 0.000000 0.000000
vn 0.328479 0.944379 -0.015825
vn 0.328479 0.944379 -0.015825
vn 0.328479 0.944379 -0.015825
vn 0.328479 0.944379 -0.015825
vn -0.848351 0.116651 0.516424
vn -0.848351 0.116651 0.516424
vn -0.848351 0.116651 0.516424
vn -0.848351 0.116651 0.516424
vn -0.724473 -0.298641 -0.621251
vn -0.724473 -0.298641 -0.621251
vn -0.724473 -0.298641 -0.621251
vn -0.724473 -0.298641 -0.621251
vn 0.907277 0.243973 -0.342529
vn 0.907277 0.243973 -0.342529
vn 0.907277 0.243973 -0.342529
vn 0.907277 0.243973 -0.342529
vn -0.269725 0.962243 -0.036575
vn -0.269725 0.962243 -0.036575
vn -0.269725 0.962243 -0.036575
vn -0.269725 0.962243 -0.036575
vn -0.371391 -0.928477 0.000000
vn -0.371391 -0.928477 0.000000
vn -0.371391 -0.928477 0.000000
vn -0.371391 -0.928477 0.000000
vn -0.525232 -0.842279 0.121238
vn -0.525232 -0.842279 0.121238
vn -0.525232 -0.842278 0.121238
vn -0.525232 -0.842279 0.121238
vn 0.000000 0.000000 0.000000
vn 0.000000 0.000000 0.000000
vn 0.000000 0.000000 0.000000
vn 0.000000 0.000000 0.000000
vn -0.211830 0.714154 0.667167
vn -0.211830 0.714154 0.667167
vn -0.211830 0.714154 0.667167
vn -0.211830 0.714154 0.667167
vn 0.578036 0.000000 -0.816011
vn 0.578036 0.000000 -0.816011
vn 0.578036 0.000000 -0.816011
vn 0.578036 0.000000 -0.816011
vn -0.999648 0.013512 -0.022838
vn -0.999648 0.013512 -0.022838
vn -0.999648 0.013512 -0.022838
vn -0.999648 0.013512 -0.022838
vn -0.028860 -0.619087 -0.784792
vn -0.028860 -0.619087 -0.784792
vn -0.028860 -0.619087 -0.784792
vn -0.028860 -0.619087 -0.784792
vn 0.510197 -0.038249 0.859207
vn 0.510197 -0.038249 0.859207
vn 0.510197 -0.038249 0.859207
vn 0.510197 -0.038249 0.859207
vn 0.772894 -0.521582 0.361369
vn 0.772894 -0.521582 0.361369
vn 0.772894 -0.521582 0.361369
vn 0.772894 -0.521582 0.361369
vn -0.833794 -0.171456 0.524776
vn -0.833795 -0.171456 0.524776
vn -0.833795 -0.171456 0.524776
vn -0.833795 -0.171456 0.524776
vn -0.870371 0.348177 -0.348177
vn -0.870371 0.348177 -0.348177
vn -0.870371 0.348177 -0.348177
vn -0.870371 0.348177 -0.348177
vn 0.134818 0.886110 -0.443433
vn 0.134818 0.886110 -0.443433
vn 0.134818 0.886110 -0.443433
vn 0.134818 0.886110 -0.443433
vn 0.634855 -0.691063 -0.345531
vn 0.634855 -0.691063 -0.345531
vn 0.634855 -0.691063 -0.345531
vn 0.634855 -0.691063 -0.345531
vn -0.554745 -0.750392 -0.359403
vn -0.554745 -0.750392 -0.359403
vn -0.554745 -0.750392 -0.359403
vn -0.554745 -0.750392 -0.359403
vn -0.663559 0.345437 0.663598
vn -0.663559 0.345437 0.663598
vn -0.663559 0.345437 0.663598
vn -0.663559 0.345437 0.663598
vn 0.669555 -0.525212 0.525212
vn 0.669555 -0.525212 0.525212
vn 0.669555 -0.525212 0.525212
vn 0.669555 -0.525212 0.525212
vn -0.532607 -0.842162 0.084216
vn -0.532607 -0.842162 0.084216
vn -0.532607 -0.842162 0.084216
vn -0.532607 -0.842162 0.084216
vn 0.000000 0.000000 0.000000
vn 0.254813 0.966990 0.000000
vn 0.254813 0.966990 0.000000
vn 0.000000 0.000000 0.000000
vn 0.538219 0.838682 0.083258
vn 0.538219 0.838682 0.083258
vn 0.538219 0.838682 0.083258
vn 0.538219 0.838682 0.083258
vn -0.502241 -0.860913 -0.081137
vn -0.502241 -0.860913 -0.081137
vn -0.502241 -0.860913 -0.081137
vn -0.502241 -0.860913 -0.081137
vn 0.904312 -0.407198 0.128097
vn 0.904312 -0.407198 0.128097
vn 0.904312 -0.407198 0.128097
vn 0.904312 -0.407198 0.128097
vn -0.636592 -0.064924 0.768463
vn -0.636592 -0.064924 0.768463
vn -0.636592 -0.064924 0.768463
vn -0.636592 -0.064924 0.768463
vn -0.942049 -0.245102 -0.229062
vn -0.942049 -0.245102 -0.229062
vn -0.942049 -0.245102 -0.229062
vn -0.942049 -0.245102 -0.229062
vn 0.583121 -0.805795 -0.103267
vn 0.583121 -0.805795 -0.103267
vn 0.583121 -0.805795 -0.103267
vn 0.583121 -0.805795 -0.103267
vn 0.949764 0.000000 -0.312968
vn 0.949764 0.000000 -0.312968
vn 0.949764 0.000000 -0.312968
vn 0.949764 0.000000 -0.312968
vn 0.263678 0.961358 -0.079154
vn 0.263678 0.961358 -0.079154
vn 0.263678 0.961358 -0.079154
vn 0.263678 0.961358 -0.079154
vn -0.152455 -0.974885 0.162348
vn -0.152455 -0.974885 0.162348
vn -0.152455 -0.974885 0.162348
vn -0.152455 -0.974885 0.162348
vn 0.703425 0.568730 0.426310
vn 0.703425 0.568730 0.426310
vn 0.703424 0.568730 0.426310
vn 0.703424 0.568730 0.426310
vn 0.177187 0.089985 0.980055
vn 0.177187 0.089985 0.980055
vn 0.177187 0.089985 0.980055
vn 0.177187 0.089985 0.980055
vn -0.376675 -0.841575 -0.387128
vn -0.376674 -0.841575 -0.387128
vn -0.376675 -0.841575 -0.387128
vn -0.376675 -0.841575 -0.387128
vn -0.992267 -0.063200 -0.106824
vn -0.992267 -0.063200 -0.106824
vn -0.992267 -0.063200 -0.106824
vn -0.992267 -0.063200 -0.106824
vn 0.140537 -0.240129 -0.960514
vn 0.140537 -0.240129 -0.960514
vn 0.140537 -0.240129 -0.960514
vn 0.140537 -0.240129 -0.960514
vn -0.533079 0.428273 0.729663
vn -0.533079 0.428273 0.729663
vn -0.533079 0.428273 0.729663
vn -0.533079 0.428273 0.729663
vn 0.000000 0.000000 0.000000
vn 0.683486 -0.683486 0.256307
vn 0.683486 -0.683486 0.256307
vn 0.000000 0.000000 0.000000
vn -0.924308 -0.311899 0.219942
vn -0.924308 -0.311899 0.219942
vn -0.924308 -0.311899 0.219942
vn -0.924308 -0.311899 0.219942
vn 0.404328 0.900201 -0.161731
vn 0.404328 0.900201 -0.161731
vn 0.404328 0.900201 -0.161731
vn 0.404328 0.900201 -0.161731
vn -0.196959 -0.901677 -0.384950
vn -0.196959 -0.901677 -0.384950
vn -0.196959 -0.901677 -0.384950
vn -0.196959 -0.901677 -0.384950
vn 0.096781 0.853881 -0.511391
vn 0.096781 0.853881 -0.511391
vn 0.096781 0.853881 -0.511391
vn 0.096781 0.853881 -0.511391
vn -0.998075 0.062020 0.000000
vn 0.000000 0.000000 0.000000
vn 0.000000 0.000000 0.000000
vn -0.998075 0.062020 0.000000
vn -0.771552 0.630451 0.085089
vn -0.771552 0.630451 0.085089
vn -0.771552 0.630451 0.085089
vn -0.771552 0.630451 0.085089
vn 0.866599 0.499005 0.000000
vn 0.866599 0.499005 0.000000
vn 0.866599 0.499005 0.000000
vn 0.866599 0.499005 0.000000
vn 0.000000 0.000000 0.000000
vn -0.132164 0.991228 0.000000
vn -0.132164 0.991228 0.000000
vn 0.000000 0.000000 0.000000
vn 0.159588 0.000000 -0.987184
vn 0.000000 0.000000 0.000000
vn 0.000000 0.000000 0.000000
vn 0.159588 0.000000 -0.987184
vn -0.998197 0.030560 0.051654
vn -0.998197 0.030560 0.051654
vn -0.998197 0.030560 0.051654
vn -0.998197 0.030560 0.051654
vn 0.050782 -0.942811 -0.329436
vn 0.050782 -0.942811 -0.329436
vn 0.050782 -0.942811 -0.329436
vn 0.050782 -0.942811 -0.329436
vn 0.541398 0.657579 0.523907
vn 0.541398 0.657579 0.523907
vn 0.541398 0.657579 0.523907
vn 0.541398 0.657579 0.523907
vn 0.982587 -0.185801 0.000000
vn 0.982587 -0.185801 0.000000
vn 0.982587 -0.185801 0.000000
vn 0.982587 -0.185801 0.000000
vn 0.788283 0.195862 0.583308
vn 0.788283 0.195862 0.583308
vn 0.788283 0.195862 0.583308
vn 0.788283 0.195862 0.583308
vn -0.701672 -0.440455 0.560050
vn -0.701672 -0.440455 0.560050
vn -0.701672 -0.440455 0.560050
vn -0.701672 -0.440455 0.560050
vn -0.347610 0.937639 0.000000
vn -0.347610 0.937639 0.000000
vn -0.347610 0.937639 0.000000
vn -0.347610 0.937639 0.000000
vn 0.204012 0.929736 -0.306546
vn 0.204012 0.929736 -0.306546
vn 0.204012 0.929736 -0.306546
vn 0.204012 0.929736 -0.306546
vn 0.525814 0.839726 0.135572
vn 0.525814 0.839726 0.135572
vn 0.525814 0.839726 0.135572
vn 0.525814 0.839726 0.135572
vn 0.000000 0.000000 0.000000
vn 1.000000 0.000000 0.000000
vn 1.000000 0.000000 0.000000
vn 0.000000 0.000000 0.000000
vn 0.000000 0.000000 0.000000
vn 0.000000 0.868243 -0.496139
vn 0.000000 0.868243 -0.496139
vn 0.000000 0.000000 0.000000
vn -0.790388 -0.227517 -0.568791
vn -0.790388 -0.227517 -0.568791
vn -0.790388 -0.227517 -0.568791
vn -0.790388 -0.227517 -0.568791
vn -0.995819 -0.091349 0.000000
vn -0.995819 -0.091349 0.000000
vn -0.995819 -0.091349 0.000000
vn -0.995819 -0.091349 0.000000
vn -0.569247 -0.822166 0.000000
vn -0.569247 -0.822167 0.000000
vn -0.569247 -0.822167 0.000000
vn -0.569247 -0.822167 0.000000
vn 0.997203 -0.074744 0.000000
vn 0.997203 -0.074744 0.000000
vn 0.997203 -0.074744 0.000000
vn 0.997203 -0.074744 0.000000
vn 0.336600 0.902141 -0.269894
vn 0.336600 0.902141 -0.269894
vn 0.336600 0.902141 -0.269894
vn 0.336600 0.902141 -0.269894
vn -0.327067 0.735142 0.593796
vn -0.327068 0.735142 0.593796
vn -0.327067 0.735142 0.593796
vn -0.327067 0.735142 0.593796
vn -0.754655 0.499465 0.425478
vn -0.754655 0.499465 0.425478
vn -0.754655 0.499465 0.425478
vn -0.754655 0.499465 0.425478
vn -0.742095 -0.601709 -0.295367
vn -0.742095 -0.601709 -0.295367
vn -0.742095 -0.601709 -0.295367
vn -0.742095 -0.601709 -0.295367
vn -0.323696 0.935899 -0.138978
vn -0.323696 0.935899 -0.138978
vn -0.323696 0.935899 -0.138978
vn -0.323696 0.935899 -0.138978
vn 0.002716 0.905035 -0.425328
vn 0.002716 0.905035 -0.425328
vn 0.002716 0.905035 -0.425328
vn 0.002716 0.905035 -0.425328
vn 0.000000 0.799167 0.601109
vn 0.000000 0.799167 0.601109
vn 0.000000 0.799167 0.601109
vn 0.000000 0.799167 0.601109
vn 0.254919 0.387577 0.885890
vn 0.254919 0.387577 0.885890
vn 0.254919 0.387577 0.885890
vn 0.254919 0.387577 0.885890
vn 0.845804 0.000000 0.533493
vn 0.845804 0.000000 0.533493
vn 0.845804 0.000000 0.533493
vn 0.845804 0.000000 0.533493
vn 0.819826 -0.225794 -0.526216
vn 0.819826 -0.225794 -0.526216
vn 0.819826 -0.225794 -0.526216
vn 0.819826 -0.225794 -0.526216
vn -0.771742 -0.078878 -0.631025
vn -0.771742 -0.078878 -0.631025
vn -0.771742 -0.078878 -0.631025
vn -0.771742 -0.078878 -0.631025
vn -0.753593 -0.364628 0.546941
vn -0.753593 -0.364628 0.546941
vn -0.753593 -0.364628 0.546941
vn -0.753593 -0.364628 0.546941
vn -0.501164 -0.747244 0.436418
vn -0.501164 -0.747244 0.436418
vn -0.501164 -0.747244 0.436418
vn -0.501164 -0.747244 0.436418
vn 0.000000 -0.157101 -0.987583
vn 0.000000 -0.157101 -0.987583
vn 0.000000 -0.157101 -0.987583
vn 0.000000 -0.157101 -0.987583
vn -0.106022 -0.985161 0.134974
vn -0.106022 -0.985161 0.134974
vn -0.106022 -0.985161 0.134974
vn -0.106022 -0.985161 0.134974
vn 0.673706 -0.000001 -0.738999
vn 0.673706 -0.000001 -0.738999
vn 0.673706 -0.000001 -0.738999
vn 0.673706 -0.000001 -0.738999
vn -0.213241 0.967540 -0.135624
vn -0.213241 0.967540 -0.135624
vn -0.213241 0.967540 -0.135624
vn -0.213241 0.967540 -0.135624
vn 0.209028 0.946299 -0.246628
vn 0.209028 0.946299 -0.246628
vn 0.209028 0.946299 -0.246628
vn 0.209028 0.946299 -0.246628
vn -1.000000 0.000000 0.000000
vn -1.000000 0.000000 0.000000
vn 0.000000 0.000000 0.000000
vn -1.000000 0.000000 0.000000
vn 0.055500 -0.982178 0.179574
vn 0.055500 -0.982178 0.179574
vn 0.055500 -0.982178 0.179574
vn 0.055500 -0.982178 0.179574
vn 0.000000 0.000000 0.000000
vn 0.624695 -0.780869 0.000000
vn 0.624695 -0.780869 0.000000
vn 0.000000 0.000000 0.000000
vn 0.000000 0.000000 0.000000
vn 0.000000 0.000000 0.000000
vn 0.000000 0.000000 0.000000
vn 0.000000 0.000000 0.000000
vn -0.186112 0.982529 0.000000
vn 0.000000 0.000000 0.000000
vn 0.000000 0.000000 0.000000
vn -0.186112 0.982529 0.000000
vn 0.700593 -0.563181 0.438173
vn 0.700593 -0.563181 0.438173
vn 0.700593 -0.563181 0.438173
vn 0.700593 -0.563181 0.438173
vn 0.850770 0.267877 -0.452142
vn 0.850770 0.267877 -0.452142
vn 0.850770 0.267877 -0.452142
vn 0.850770 0.267877 -0.452142
vn 0.065981 0.948056 -0.311184
vn 0.065981 0.948056 -0.311184
vn 0.065981 0.948056 -0.311184
vn 0.065981 0.948056 -0.311184
vn 0.000000 0.988028 -0.154275
vn 0.000000 0.988028 -0.154275
vn 0.000000 0.988028 -0.154275
vn 0.000000 0.988028 -0.154275
vn 0.835489 -0.536820 -0.117400
vn 0.835489 -0.536820 -0.117400
vn 0.835489 -0.536820 -0.117400
vn 0.835488 -0.536821 -0.117400
vn 0.769286 -0.291217 0.568676
vn 0.769286 -0.291217 0.568676
vn 0.769286 -0.291217 0.568676
vn 0.769286 -0.291217 0.568676
vn 0.343061 -0.867823 0.359433
vn 0.343061 -0.867823 0.359433
vn 0.343061 -0.867823 0.359433
vn 0.343061 -0.867823 0.359433
vn -0.914597 -0.386073 -0.120249
vn -0.914597 -0.386073 -0.120249
vn -0.914597 -0.386073 -0.120249
vn -0.914597 -0.386073 -0.120249
vn 0.077601 -0.896433 -0.436333
vn 0.077601 -0.896433 -0.436332
vn 0.077601 -0.896433 -0.436332
vn 0.077601 -0.896433 -0.436333
vn 0.854195 -0.367662 -0.367662
vn 0.854195 -0.367662 -0.367662
vn 0.854195 -0.367662 -0.367662
vn 0.854195 -0.367662 -0.367662
vn 0.000000 -0.613203 -0.789925
vn 0.000000 -0.613203 -0.789925
vn 0.000000 -0.613203 -0.789925
vn 0.000000 -0.613203 -0.789925
vn -0.506353 -0.053790 0.860647
vn -0.506353 -0.053790 0.860647
vn -0.506353 -0.053790 0.860647
vn -0.506353 -0.053790 0.860647
vn 0.000000 0.000000 0.000000
vn 0.000000 0.000000 0.000000
vn 0.000000 0.000000 0.000000
vn 0.000000 0.000000 0.000000
vn 0.305159 0.121304 -0.944544
vn 0.000000 0.000000 0.000000
vn 0.000000 0.000000 0.000000
vn 0.305159 0.121304 -0.944544
vn -0.390047 0.031866 -0.920243
vn -0.390047 0.031866 -0.920243
vn -0.390047 0.031866 -0.920243
vn -0.390047 0.031866 -0.920243
vn 0.993629 0.000000 0.112705
vn 0.993629 0.000000 0.112705
vn 0.993629 0.000000 0.112705
vn 0.993629 0.000000 0.112705
vn 0.432930 0.701456 0.566155
vn 0.432930 0.701456 0.566155
vn 0.432930 0.701456 0.566155
vn 0.432930 0.701456 0.566155
vn -0.894116 -0.000000 -0.447834
vn -0.894117 -0.000000 -0.447835
vn 0.048313 0.995699 0.079058
vn 0.048313 0.995699 0.079058
vn 0.894116 0.000000 -0.447835
vn 0.894116 0.000000 -0.447835
vn -0.048313 0.995699 0.079058
vn -0.048313 0.995699 0.079058
vn 0.000000 0.000000 -1.000000
vn 0.000000 0.000000 -1.000000
vn 0.000000 0.994070 0.108739
vn 0.000000 0.994070 0.108739
vn -0.894116 -0.000000 0.447835
vn -0.894116 -0.000000 0.447835
vn 0.048313 0.995699 -0.079059
vn 0.048313 0.995699 -0.079059
vn 0.894116 0.000000 0.447835
vn 0.894116 0.000000 0.447835
vn -0.048313 0.995699 -0.079059
vn -0.048313 0.995699 -0.079059
vn 0.000000 0.000000 1.000000
vn 0.000000 0.000000 1.000000
vn 0.000000 0.994070 -0.108739
vn 0.000000 0.994070 -0.108739
s off
g polySurface1
usemtl initialShadingGroup
f 1/1/1 2/2/2 3/3/3 4/4/4
f 4/5/5 3/6/6 5/7/7 6/8/8
f 6/9/9 5/10/10 7/11/11 8/12/12
f 9/13/13 10/14/14 8/15/15 7/16/16
f 10/17/17 9/18/18 11/19/19 12/20/20
f 12/21/21 11/22/22 13/23/23 14/24/24
f 14/25/25 13/26/26 2/27/27 1/28/28
f 8/29/29 10/30/30 15/31/31 16/32/32
f 10/33/33 12/34/34 17/35/35 15/31/36
f 12/36/37 14/37/38 18/38/39 17/35/40
f 14/39/41 1/40/42 19/41/43 18/38/44
f 1/42/45 4/43/46 20/44/47 19/41/48
f 4/45/49 6/46/50 21/47/51 20/44/52
f 6/48/53 8/49/54 16/32/55 21/47/56
f 9/50/57 7/51/58 22/52/59 23/53/60
f 11/54/61 9/55/62 23/53/63 24/56/64
f 13/57/65 11/58/66 24/56/67 25/59/68
f 2/60/69 13/61/70 25/59/71 26/62/72
f 3/63/73 2/64/74 26/62/75 27/65/76
f 5/66/77 3/67/78 27/65/79 28/68/80
f 7/69/81 5/70/82 28/68/83 22/52/84
f 23/71/85 22/72/86 16/73/87 15/74/88
f 24/75/89 23/71/90 15/74/91 17/76/92
f 25/77/93 24/75/94 17/76/95 18/78/96
f 26/79/97 25/77/98 18/78/99 19/80/100
f 27/81/101 26/79/102 19/80/103 20/82/104
f 28/83/105 27/81/106 20/82/107 21/84/108
f 22/85/109 28/83/110 21/84/111 16/86/112
f 30/87/113 69/88/114 67/89/115
f 29/90/116 66/91/117 67/92/118
f 29/90/119 64/93/120 63/94/121
f 29/90/122 63/94/123 66/91/124
f 29/90/125 68/95/126 64/93/127
f 33/96/128 60/97/129 58/98/130
f 38/99/131 69/88/132 57/100/133
f 30/87/134 65/101/135 59/102/136
f 32/103/137 55/104/138 53/105/139
f 31/106/140 52/107/141 53/108/142
f 33/96/143 58/98/144 49/109/145
f 31/106/146 54/110/147 49/109/148
f 34/111/149 47/112/150 50/113/151
f 110/114/152 111/115/153 112/116/154
f 32/103/155 51/117/156 45/118/157
f 32/103/158 46/119/159 55/104/160
f 33/96/161 48/120/162 57/100/163
f 34/111/164 56/121/165 47/112/166
f 35/122/167 44/123/168 62/124/169
f 36/125/170 61/126/171 43/127/172
f 43/127/173 42/128/174 37/129/175
f 42/128/176 61/126/177 38/130/178
f 43/127/179 61/126/180 42/128/181
f 62/124/182 41/131/183 39/132/184
f 41/131/185 44/123/186 40/133/187
f 62/124/188 44/123/189 41/131/190
f 47/112/191 41/134/192 40/135/193
f 41/134/194 56/121/195 39/136/196
f 47/112/197 56/121/198 41/134/199
f 57/100/200 42/137/201 38/99/202
f 42/137/203 48/120/204 37/138/205
f 57/100/206 48/120/207 42/137/208
f 55/104/209 43/127/210 37/129/211
f 43/127/212 46/119/213 36/125/214
f 55/104/215 46/119/216 43/127/217
f 45/118/218 44/123/219 35/122/220
f 44/123/221 51/117/222 40/133/223
f 45/118/224 51/117/225 44/123/226
f 45/118/227 46/119/228 32/103/229
f 113/139/230 111/115/231 114/140/232
f 112/116/233 111/115/234 113/139/235
f 50/113/236 52/107/237 31/106/238
f 52/107/239 47/112/240 40/135/241
f 50/113/242 47/112/243 52/107/244
f 49/109/245 48/120/246 33/96/247
f 48/120/248 54/110/249 37/138/250
f 49/109/251 54/110/252 48/120/253
f 49/109/254 50/113/255 31/106/256
f 50/113/257 58/98/258 34/111/259
f 49/109/260 58/98/261 50/113/262
f 53/105/263 51/117/264 32/103/265
f 51/141/266 52/107/267 40/135/268
f 53/108/269 52/107/270 51/141/271
f 53/108/272 54/110/273 31/106/274
f 54/110/275 55/142/276 37/138/277
f 53/108/278 55/142/279 54/110/280
f 59/102/281 56/121/282 34/111/283
f 56/121/284 65/101/285 39/136/286
f 59/102/287 65/101/288 56/121/289
f 57/100/290 60/97/291 33/96/292
f 60/97/293 69/88/294 30/87/295
f 57/100/296 69/88/297 60/97/298
f 58/98/299 59/102/300 34/111/301
f 59/102/302 60/97/303 30/87/304
f 58/98/305 60/97/306 59/102/307
f 64/93/308 61/126/309 36/125/310
f 61/126/311 68/95/312 38/130/313
f 64/93/314 68/95/315 61/126/316
f 66/91/317 62/124/318 39/132/319
f 62/124/320 63/94/321 35/122/322
f 66/91/323 63/94/324 62/124/325
f 115/143/326 111/115/327 110/114/328
f 111/115/329 116/144/330 114/140/331
f 115/143/332 116/144/333 111/115/334
f 67/89/335 65/101/336 30/87/337
f 65/101/338 66/145/339 39/136/340
f 67/89/341 66/145/342 65/101/343
f 67/92/344 68/95/345 29/90/346
f 68/146/347 69/88/348 38/99/349
f 67/89/350 69/88/351 68/146/352
f 30/147/353 69/148/354 71/149/355 70/150/356
f 38/130/357 68/95/358 73/151/359 72/152/360
f 29/90/361 67/92/362 75/153/363 74/154/364
f 29/90/365 66/91/366 76/155/367 74/154/368
f 39/132/369 65/156/370 78/157/371 77/158/372
f 29/90/373 64/93/374 79/159/375 74/154/376
f 35/122/377 63/94/378 82/160/379 81/161/380
f 35/122/381 62/124/382 83/162/383 81/161/384
f 38/130/385 61/126/386 84/163/387 72/152/388
f 33/164/389 60/165/390 86/166/391 85/167/392
f 30/147/393 59/168/394 87/169/395 70/150/396
f 33/164/397 57/170/398 89/171/399 85/167/400
f 39/132/401 56/172/402 90/173/403 77/158/404
f 32/103/405 55/104/406 92/174/407 91/175/408
f 37/129/409 54/176/410 94/177/411 93/178/412
f 31/179/413 53/105/414 96/180/415 95/181/416
f 31/179/417 52/182/418 97/183/419 95/181/420
f 40/133/421 51/117/422 99/184/423 98/185/424
f 34/186/425 50/187/426 100/188/427 88/189/428
f 31/179/429 49/190/430 101/191/431 95/181/432
f 37/129/433 48/192/434 102/193/435 93/178/436
f 34/186/437 47/194/438 103/195/439 88/189/440
f 36/125/441 46/119/442 104/196/443 80/197/444
f 32/103/445 45/118/446 105/198/447 91/175/448
f 40/133/449 44/123/450 106/199/451 98/185/452
f 36/125/453 43/127/454 107/200/455 80/197/456
f 37/129/457 42/128/458 108/201/459 93/178/460
f 39/132/461 41/131/462 109/202/463 77/158/464
f 41/131/465 40/133/466 98/185/467 109/202/468
f 42/128/469 38/130/470 72/152/471 108/201/472
f 43/127/473 37/129/474 93/178/475 107/200/476
f 44/123/477 35/122/478 81/161/479 106/199/480
f 45/118/481 35/122/482 81/161/483 105/198/484
f 46/119/485 32/103/486 91/175/487 104/196/488
f 47/194/489 40/133/490 98/185/491 103/195/492
f 48/192/493 33/164/494 85/167/495 102/193/496
f 49/190/497 33/164/498 85/167/499 101/191/500
f 50/187/501 31/179/502 95/181/503 100/188/504
f 51/117/505 32/103/506 91/175/507 99/184/508
f 52/182/509 40/133/510 98/185/511 97/183/512
f 53/105/513 32/103/514 91/175/515 96/180/516
f 54/176/517 31/179/518 95/181/519 94/177/520
f 55/104/521 37/129/522 93/178/523 92/174/524
f 56/172/525 34/186/526 88/189/527 90/173/528
f 57/170/529 38/130/530 72/152/531 89/171/532
f 59/168/533 34/186/534 88/189/535 87/169/536
f 60/165/537 30/147/538 70/150/539 86/166/540
f 61/126/541 36/125/542 80/197/543 84/163/544
f 62/124/545 39/132/546 77/158/547 83/162/548
f 63/94/549 29/90/550 74/154/551 82/160/552
f 64/93/553 36/125/554 80/197/555 79/159/556
f 65/156/557 30/147/558 70/150/559 78/157/560
f 66/91/561 39/132/562 77/158/563 76/155/564
f 67/92/565 30/147/566 70/150/567 75/153/568
f 68/95/569 29/90/570 74/154/571 73/151/572
f 69/148/573 38/130/574 72/152/575 71/149/576
f 61/126/577 43/127/578 107/200/579 84/163/580
f 61/126/581 42/128/582 108/201/583 84/163/584
f 43/127/585 42/128/586 108/201/587 107/200/588
f 44/123/589 62/124/590 83/162/591 106/199/592
f 44/123/593 41/131/594 109/202/595 106/199/596
f 62/124/597 41/131/598 109/202/599 83/162/600
f 56/172/601 47/194/602 103/195/603 90/173/604
f 56/172/605 41/131/606 109/202/607 90/173/608
f 47/194/609 41/131/610 109/202/611 103/195/612
f 48/192/613 57/170/614 89/171/615 102/193/616
f 48/192/617 42/128/618 108/201/619 102/193/620
f 57/170/621 42/128/622 108/201/623 89/171/624
f 46/119/625 55/104/626 92/174/627 104/196/628
f 46/119/629 43/127/630 107/200/631 104/196/632
f 55/104/633 43/127/634 107/200/635 92/174/636
f 51/117/637 45/118/638 105/198/639 99/184/640
f 51/117/641 44/123/642 106/199/643 99/184/644
f 45/118/645 44/123/646 106/199/647 105/198/648
f 45/118/649 46/119/650 104/196/651 105/198/652
f 47/194/653 50/187/654 100/188/655 103/195/656
f 47/194/657 52/182/658 97/183/659 103/195/660
f 50/187/661 52/182/662 97/183/663 100/188/664
f 54/176/665 49/190/666 101/191/667 94/177/668
f 54/176/669 48/192/670 102/193/671 94/177/672
f 49/190/673 48/192/674 102/193/675 101/191/676
f 49/190/677 50/187/678 100/188/679 101/191/680
f 52/182/681 53/105/682 96/180/683 97/183/684
f 52/182/685 51/117/686 99/184/687 97/183/688
f 53/105/689 51/117/690 99/184/691 96/180/692
f 55/104/693 53/105/694 96/180/695 92/174/696
f 55/104/697 54/176/698 94/177/699 92/174/700
f 53/105/701 54/176/702 94/177/703 96/180/704
f 65/156/705 59/168/706 87/169/707 78/157/708
f 65/156/709 56/172/710 90/173/711 78/157/712
f 59/168/713 56/172/714 90/173/715 87/169/716
f 69/148/717 57/170/718 89/171/719 71/149/720
f 69/148/721 60/165/722 86/166/723 71/149/724
f 57/170/725 60/165/726 86/166/727 89/171/728
f 60/165/729 59/168/730 87/169/731 86/166/732
f 68/95/733 64/93/734 79/159/735 73/151/736
f 68/95/737 61/126/738 84/163/739 73/151/740
f 64/93/741 61/126/742 84/163/743 79/159/744
f 63/94/745 66/91/746 76/155/747 82/160/748
f 63/94/749 62/124/750 83/162/751 82/160/752
f 66/91/753 62/124/754 83/162/755 76/155/756
f 64/93/757 63/94/758 82/160/759 79/159/760
f 66/91/761 67/92/762 75/153/763 76/155/764
f 66/91/765 65/156/766 78/157/767 76/155/768
f 67/92/769 65/156/770 78/157/771 75/153/772
f 69/148/773 67/92/774 75/153/775 71/149/776
f 69/148/777 68/95/778 73/151/779 71/149/780
f 67/92/781 68/95/782 73/151/783 75/153/784
f 45/203/785 35/204/786 110/205/787 112/206/788
f 36/207/789 46/208/790 113/209/791 114/210/792
f 46/208/793 45/203/794 112/206/795 113/209/796
f 35/204/797 63/211/798 115/212/799 110/205/800
f 64/213/801 36/207/802 114/210/803 116/214/804
f 63/211/805 64/215/806 116/216/807 115/212/808
