# This file uses centimeters as units for non-parametric coordinates.

mtllib Hill_02.mtl
g default
v 0.931498 2.699351 -14.577006
v -14.495951 2.177396 0.777447
v 0.041004 2.561586 13.884939
v 14.467365 1.347343 -0.878642
v 0.311247 31.820032 0.345657
v 0.000000 -1.614749 0.000000
v 7.823465 1.423215 -7.823464
v 8.037283 1.766757 8.037284
v -7.473164 1.737200 7.473163
v -7.486517 0.878491 -7.486519
v -7.188905 13.151613 -7.188907
v -9.043749 17.615067 -0.915731
v 0.491301 17.812003 -9.474046
v -8.080916 13.559865 8.080914
v 0.480851 17.515983 8.827259
v 6.812047 12.979133 6.812048
v 9.793767 17.958335 -0.400600
v 7.715071 13.392426 -7.715071
v 0.000001 -1.650187 -6.277899
v -4.174603 0.956842 -10.452504
v 5.319997 1.944150 -11.597896
v 3.138951 -1.756349 -3.138950
v -3.138949 -1.536447 -3.138950
v -4.705695 8.819944 -10.255201
v 0.813368 11.042847 -12.808047
v -7.972267 8.458977 -7.972269
v -4.620054 15.219802 -7.759006
v -11.003568 9.162458 5.454062
v -12.372017 10.843285 -0.139776
v -11.191033 1.687230 4.913133
v -8.317111 8.616804 8.317109
v -8.143967 15.395990 5.005016
v 4.997814 8.953642 10.547317
v 0.475143 10.466127 11.547950
v 4.313496 1.931758 10.591396
v 8.183082 8.555464 8.183083
v 5.084225 15.432242 8.223176
v 10.779114 9.059729 -5.229608
v 12.665768 10.977727 -0.606580
v 10.934960 0.833608 -4.657058
v 8.317712 8.617080 -8.317711
v 8.791255 15.692239 -5.652304
v 6.277900 -2.185197 -0.000000
v 10.902837 0.750562 4.624938
v 3.138950 -1.423782 3.138950
v -0.000001 -0.301336 6.277899
v -4.062180 1.853326 10.340079
v -3.138950 -0.584743 3.138950
v -6.277899 -0.697443 -0.000001
v -10.434467 1.289851 -4.156570
v -11.091742 9.202813 -5.542240
v -8.870765 15.728629 -5.731817
v -4.933389 21.049509 -4.933390
v -6.165290 24.592719 0.216048
v 0.768268 24.610042 -6.203143
v -4.538002 8.743196 10.087505
v -5.092773 15.436153 8.231723
v -5.677425 21.390039 5.677424
v -0.044004 24.811383 6.643060
v 10.798346 9.068531 5.248841
v 8.060785 15.357918 4.921835
v 5.467265 21.293853 5.467266
v 6.911366 24.934181 -0.516262
v 6.557414 9.667436 -12.106917
v 6.089063 15.892134 -9.228012
v 6.435265 21.736885 -6.435265
vt 0.500000 0.000000
vt 0.250000 0.250000
vt 0.500000 0.500000
vt 0.750000 0.250000
vt 0.250000 0.500000
vt 0.375000 0.500000
vt 0.500000 0.500000
vt 0.625000 0.500000
vt 0.750000 0.500000
vt 0.500000 1.000000
vt 0.500000 0.250000
vt 0.687500 0.500000
vt 0.625000 0.125000
vt 0.562500 0.500000
vt 0.625000 0.375000
vt 0.437500 0.500000
vt 0.375000 0.375000
vt 0.312500 0.500000
vt 0.375000 0.125000
vt 0.375000 0.666667
vt 0.312500 0.500000
vt 0.437500 0.750000
vt 0.625000 0.750000
vt 0.375000 0.750000
vt 0.458333 0.666667
vt 0.437500 0.500000
vt 0.500000 0.750000
vt 0.541667 0.666667
vt 0.562500 0.500000
vt 0.562500 0.750000
vt 0.625000 0.666667
vt 0.687500 0.500000
vt 0.625000 0.750000
vt 0.500000 0.125000
vt 0.281250 0.500000
vt 0.437500 0.062500
vt 0.718750 0.500000
vt 0.562500 0.062500
vt 0.562500 0.187500
vt 0.437500 0.187500
vt 0.319752 0.593002
vt 0.687500 0.625000
vt 0.312500 0.625000
vt 0.281250 0.500000
vt 0.343750 0.583333
vt 0.375000 0.708333
vt 0.421501 0.593002
vt 0.406250 0.625000
vt 0.406250 0.500000
vt 0.312500 0.312500
vt 0.447917 0.583333
vt 0.447917 0.708333
vt 0.523251 0.593002
vt 0.500000 0.625000
vt 0.531250 0.500000
vt 0.562500 0.437500
vt 0.552083 0.583333
vt 0.520833 0.708333
vt 0.625000 0.593002
vt 0.593750 0.625000
vt 0.656250 0.500000
vt 0.687500 0.187500
vt 0.656250 0.583333
vt 0.593750 0.708333
vt 0.625000 0.250000
vt 0.687500 0.187500
vt 0.593750 0.500000
vt 0.687500 0.312500
vt 0.562500 0.312500
vt 0.500000 0.375000
vt 0.562500 0.437500
vt 0.468750 0.500000
vt 0.437500 0.437500
vt 0.437500 0.312500
vt 0.375000 0.250000
vt 0.312500 0.312500
vt 0.343750 0.500000
vt 0.312500 0.187500
vt 0.375000 0.593002
vt 0.343750 0.500000
vt 0.406250 0.708333
vt 0.430248 0.813996
vt 0.468750 0.875000
vt 0.562500 0.875000
vt 0.437500 0.875000
vt 0.476749 0.593002
vt 0.468750 0.500000
vt 0.479167 0.708333
vt 0.476749 0.813996
vt 0.500000 0.875000
vt 0.578499 0.593002
vt 0.593750 0.500000
vt 0.552083 0.708333
vt 0.523251 0.813996
vt 0.531250 0.875000
vt 0.680248 0.593002
vt 0.718750 0.500000
vt 0.687500 0.625000
vt 0.625000 0.708333
vt 0.569752 0.813996
vt 0.562500 0.875000
vn -0.267077 -0.923049 -0.276860
vn -0.267077 -0.923049 -0.276860
vn -0.267077 -0.923049 -0.276860
vn -0.267077 -0.923049 -0.276860
vn -0.480700 0.347752 -0.804982
vn -0.480700 0.347752 -0.804982
vn -0.480700 0.347752 -0.804982
vn -0.480700 0.347752 -0.804982
vn -0.845877 0.431939 0.312922
vn -0.845877 0.431939 0.312922
vn -0.845877 0.431939 0.312922
vn -0.845877 0.431939 0.312922
vn 0.288972 0.332768 0.897642
vn 0.288972 0.332768 0.897642
vn 0.288972 0.332768 0.897642
vn 0.288972 0.332768 0.897642
vn 0.871427 0.304982 -0.384190
vn 0.871427 0.304982 -0.384189
vn 0.871427 0.304982 -0.384190
vn 0.871427 0.304982 -0.384190
vn 0.227050 -0.900636 -0.370545
vn 0.227050 -0.900636 -0.370545
vn 0.227050 -0.900636 -0.370545
vn 0.227050 -0.900636 -0.370545
vn 0.149653 -0.910181 0.386232
vn 0.149653 -0.910181 0.386232
vn 0.149653 -0.910181 0.386232
vn 0.149653 -0.910181 0.386232
vn -0.204938 -0.939816 0.273400
vn -0.204938 -0.939816 0.273400
vn -0.204938 -0.939816 0.273400
vn -0.204938 -0.939816 0.273400
vn -0.695595 -0.136514 -0.705345
vn -0.695595 -0.136514 -0.705345
vn -0.695595 -0.136514 -0.705345
vn -0.695595 -0.136514 -0.705345
vn -0.782838 0.493356 -0.379162
vn -0.782838 0.493356 -0.379162
vn -0.782838 0.493356 -0.379162
vn -0.782838 0.493356 -0.379162
vn -0.537837 -0.087562 0.838489
vn -0.537837 -0.087562 0.838489
vn -0.537837 -0.087562 0.838489
vn -0.537837 -0.087562 0.838489
vn -0.275858 0.303123 0.912151
vn -0.275858 0.303123 0.912151
vn -0.275858 0.303123 0.912151
vn -0.275858 0.303123 0.912151
vn 0.754976 -0.035427 0.654794
vn 0.754976 -0.035427 0.654795
vn 0.754976 -0.035427 0.654794
vn 0.754976 -0.035427 0.654794
vn 0.838675 0.341564 0.424215
vn 0.838675 0.341564 0.424215
vn 0.838675 0.341564 0.424215
vn 0.838675 0.341564 0.424215
vn 0.851317 -0.132960 -0.507525
vn 0.851317 -0.132960 -0.507525
vn 0.851317 -0.132960 -0.507525
vn 0.851317 -0.132960 -0.507525
vn 0.179068 0.418268 -0.890498
vn 0.179068 0.418268 -0.890498
vn 0.179068 0.418268 -0.890498
vn 0.179068 0.418268 -0.890498
vn 0.036644 -0.886817 -0.460665
vn 0.036644 -0.886817 -0.460665
vn 0.036644 -0.886817 -0.460665
vn 0.036644 -0.886817 -0.460665
vn 0.291153 -0.901775 -0.319425
vn 0.291153 -0.901775 -0.319425
vn 0.291153 -0.901775 -0.319425
vn 0.291153 -0.901775 -0.319425
vn -0.035006 -0.999371 0.005641
vn -0.035006 -0.999371 0.005641
vn -0.035006 -0.999371 0.005641
vn -0.035006 -0.999371 0.005641
vn -0.551332 0.078682 -0.830567
vn -0.551332 0.078682 -0.830567
vn -0.551332 0.078682 -0.830567
vn -0.551332 0.078682 -0.830567
vn -0.620464 -0.055464 -0.782272
vn -0.620464 -0.055464 -0.782272
vn -0.620464 -0.055464 -0.782271
vn -0.620464 -0.055464 -0.782272
vn -0.513228 0.280064 -0.811271
vn -0.513228 0.280064 -0.811271
vn -0.513228 0.280064 -0.811271
vn -0.513228 0.280064 -0.811271
vn -0.880699 0.136689 0.453525
vn -0.880699 0.136689 0.453525
vn -0.880699 0.136689 0.453525
vn -0.880699 0.136689 0.453525
vn -0.647428 -0.102467 0.755207
vn -0.647428 -0.102467 0.755207
vn -0.647428 -0.102467 0.755207
vn -0.647428 -0.102467 0.755207
vn -0.832073 0.260498 0.489690
vn -0.832073 0.260498 0.489690
vn -0.832073 0.260498 0.489689
vn -0.832073 0.260498 0.489689
vn 0.457090 0.106607 0.883008
vn 0.457090 0.106607 0.883008
vn 0.457090 0.106607 0.883008
vn 0.457090 0.106607 0.883008
vn 0.577249 -0.040704 0.815553
vn 0.577249 -0.040704 0.815553
vn 0.577249 -0.040704 0.815553
vn 0.577249 -0.040704 0.815553
vn 0.685223 0.304923 0.661431
vn 0.685223 0.304923 0.661431
vn 0.685223 0.304924 0.661431
vn 0.685223 0.304924 0.661431
vn 0.826697 0.081254 -0.556750
vn 0.826696 0.081254 -0.556750
vn 0.826696 0.081254 -0.556750
vn 0.826696 0.081254 -0.556750
vn 0.744439 -0.062328 -0.664775
vn 0.744439 -0.062328 -0.664775
vn 0.744439 -0.062328 -0.664775
vn 0.744439 -0.062328 -0.664775
vn 0.762263 0.182889 -0.620892
vn 0.762263 0.182889 -0.620892
vn 0.762263 0.182889 -0.620892
vn 0.762263 0.182889 -0.620892
vn 0.395446 -0.918464 -0.006849
vn 0.395446 -0.918464 -0.006849
vn 0.395446 -0.918464 -0.006849
vn 0.395446 -0.918464 -0.006849
vn 0.174326 -0.898221 0.403497
vn 0.174326 -0.898221 0.403497
vn 0.174326 -0.898221 0.403497
vn 0.174326 -0.898221 0.403497
vn -0.090368 -0.994514 0.052684
vn -0.090368 -0.994514 0.052684
vn -0.090368 -0.994514 0.052684
vn -0.090368 -0.994514 0.052684
vn -0.001805 -0.935908 0.352240
vn -0.001805 -0.935908 0.352240
vn -0.001805 -0.935908 0.352240
vn -0.001805 -0.935908 0.352240
vn -0.208514 -0.934175 0.289548
vn -0.208514 -0.934175 0.289548
vn -0.208514 -0.934175 0.289548
vn -0.208514 -0.934175 0.289548
vn -0.129712 -0.970539 0.203049
vn -0.129712 -0.970539 0.203049
vn -0.129712 -0.970539 0.203049
vn -0.129712 -0.970539 0.203049
vn -0.328993 -0.944230 0.013927
vn -0.328993 -0.944230 0.013927
vn -0.328993 -0.944230 0.013927
vn -0.328993 -0.944230 0.013927
vn -0.340519 -0.929648 -0.140720
vn -0.340519 -0.929648 -0.140720
vn -0.340519 -0.929648 -0.140721
vn -0.340519 -0.929648 -0.140721
vn -0.142982 -0.978545 0.148343
vn -0.142982 -0.978545 0.148343
vn -0.142982 -0.978545 0.148343
vn -0.142982 -0.978545 0.148343
vn -0.886860 0.014308 -0.461817
vn -0.886860 0.014308 -0.461817
vn -0.886860 0.014308 -0.461817
vn -0.886860 0.014308 -0.461817
vn -0.899617 0.357180 -0.251221
vn -0.899617 0.357180 -0.251221
vn -0.899617 0.357180 -0.251221
vn -0.899617 0.357180 -0.251221
vn -0.536609 0.187256 -0.822792
vn -0.536609 0.187256 -0.822792
vn -0.536609 0.187256 -0.822792
vn -0.536609 0.187256 -0.822792
vn -0.559803 0.568208 -0.603126
vn -0.559803 0.568208 -0.603126
vn -0.559803 0.568208 -0.603126
vn -0.559803 0.568208 -0.603126
vn -0.443962 0.388537 -0.807426
vn -0.443962 0.388537 -0.807426
vn -0.443962 0.388537 -0.807426
vn -0.443962 0.388537 -0.807426
vn -0.368493 0.351065 -0.860794
vn -0.368493 0.351065 -0.860794
vn -0.368493 0.351065 -0.860794
vn -0.368493 0.351065 -0.860794
vn -0.505929 0.147338 0.849899
vn -0.505929 0.147338 0.849899
vn -0.505929 0.147338 0.849899
vn -0.505929 0.147338 0.849899
vn -0.282596 0.292890 0.913430
vn -0.282596 0.292890 0.913430
vn -0.282596 0.292890 0.913430
vn -0.282596 0.292890 0.913430
vn -0.313060 0.159744 0.936203
vn -0.313060 0.159744 0.936203
vn -0.313060 0.159744 0.936203
vn -0.313060 0.159744 0.936203
vn -0.584359 0.609438 0.535827
vn -0.584359 0.609438 0.535827
vn -0.584359 0.609438 0.535827
vn -0.584359 0.609438 0.535827
vn -0.903008 0.334605 0.269475
vn -0.903008 0.334605 0.269475
vn -0.903008 0.334605 0.269475
vn -0.903008 0.334605 0.269475
vn -0.669024 0.398026 0.627679
vn -0.669024 0.398026 0.627679
vn -0.669024 0.398026 0.627679
vn -0.669024 0.398026 0.627679
vn 0.893421 0.072751 0.443290
vn 0.893421 0.072751 0.443290
vn 0.893421 0.072751 0.443290
vn 0.893421 0.072751 0.443290
vn 0.837113 0.357644 0.413924
vn 0.837113 0.357644 0.413924
vn 0.837113 0.357644 0.413924
vn 0.837113 0.357644 0.413924
vn 0.618331 0.348770 0.704291
vn 0.618331 0.348770 0.704291
vn 0.618331 0.348770 0.704291
vn 0.618331 0.348770 0.704291
vn 0.585348 0.568155 0.578418
vn 0.585348 0.568155 0.578418
vn 0.585348 0.568155 0.578418
vn 0.585348 0.568155 0.578418
vn 0.339603 0.333827 0.879334
vn 0.339603 0.333827 0.879335
vn 0.339603 0.333827 0.879335
vn 0.339603 0.333827 0.879335
vn 0.726541 0.222643 0.650052
vn 0.726541 0.222643 0.650052
vn 0.726541 0.222643 0.650052
vn 0.726541 0.222643 0.650052
vn 0.350060 0.048970 -0.935446
vn 0.350060 0.048970 -0.935446
vn 0.350060 0.048970 -0.935446
vn 0.350060 0.048970 -0.935446
vn 0.199113 0.432563 -0.879343
vn 0.199113 0.432563 -0.879343
vn 0.199113 0.432563 -0.879343
vn 0.199113 0.432563 -0.879343
vn 0.882165 0.218011 -0.417440
vn 0.882165 0.218011 -0.417440
vn 0.882165 0.218011 -0.417440
vn 0.882165 0.218011 -0.417440
vn 0.484070 0.671389 -0.561171
vn 0.484070 0.671389 -0.561171
vn 0.484070 0.671389 -0.561171
vn 0.484070 0.671389 -0.561171
vn 0.895850 0.340732 -0.285226
vn 0.895850 0.340732 -0.285226
vn 0.895850 0.340732 -0.285226
vn 0.895850 0.340732 -0.285226
vn 0.785664 0.209762 -0.582006
vn 0.785664 0.209762 -0.582006
vn 0.785664 0.209762 -0.582007
vn 0.785664 0.209762 -0.582006
s off
g pPyramid1
usemtl initialShadingGroup
f 23/40/1 10/19/2 20/36/3 19/34/4
f 27/46/5 13/24/6 25/43/7 24/41/8
f 32/52/9 12/22/10 29/48/11 28/47/12
f 37/58/13 15/27/14 34/54/15 33/53/16
f 42/64/17 17/30/18 39/60/19 38/59/20
f 22/39/21 7/13/22 40/66/23 43/65/24
f 45/69/25 8/15/26 35/71/27 46/70/28
f 48/74/29 9/17/30 30/76/31 49/75/32
f 26/45/33 10/21/34 50/80/35 51/79/36
f 52/81/37 12/22/38 54/83/39 53/82/40
f 31/51/41 9/26/42 47/87/43 56/86/44
f 57/88/45 15/27/46 59/90/47 58/89/48
f 36/57/49 8/29/50 44/92/51 60/91/52
f 61/93/53 17/30/54 63/95/55 62/94/56
f 41/63/57 7/32/58 21/97/59 64/96/60
f 65/99/61 13/33/62 55/101/63 66/100/64
f 20/36/65 1/1/66 21/38/67 19/34/68
f 21/38/69 7/13/70 22/39/71 19/34/72
f 22/39/73 6/11/74 23/40/75 19/34/76
f 25/43/77 1/5/78 20/44/79 24/41/80
f 20/44/81 10/21/82 26/45/83 24/41/84
f 26/45/85 11/20/86 27/46/87 24/41/88
f 29/48/89 2/6/90 30/49/91 28/47/92
f 30/49/93 9/26/94 31/51/95 28/47/96
f 31/51/97 14/25/98 32/52/99 28/47/100
f 34/54/101 3/7/102 35/55/103 33/53/104
f 35/55/105 8/29/106 36/57/107 33/53/108
f 36/57/109 16/28/110 37/58/111 33/53/112
f 39/60/113 4/8/114 40/61/115 38/59/116
f 40/61/117 7/32/118 41/63/119 38/59/120
f 41/63/121 18/31/122 42/64/123 38/59/124
f 40/66/125 4/4/126 44/68/127 43/65/128
f 44/68/129 8/15/130 45/69/131 43/65/132
f 45/69/133 6/11/134 22/39/135 43/65/136
f 35/71/137 3/3/138 47/73/139 46/70/140
f 47/73/141 9/17/142 48/74/143 46/70/144
f 48/74/145 6/11/146 45/69/147 46/70/148
f 30/76/149 2/2/150 50/78/151 49/75/152
f 50/78/153 10/19/154 23/40/155 49/75/156
f 23/40/157 6/11/158 48/74/159 49/75/160
f 50/80/161 2/6/162 29/48/163 51/79/164
f 29/48/165 12/22/166 52/81/167 51/79/168
f 52/81/169 11/20/170 26/45/171 51/79/172
f 54/83/173 5/10/174 55/85/175 53/82/176
f 55/85/177 13/24/178 27/46/179 53/82/180
f 27/46/181 11/20/182 52/81/183 53/82/184
f 47/87/185 3/7/186 34/54/187 56/86/188
f 34/54/189 15/27/190 57/88/191 56/86/192
f 57/88/193 14/25/194 31/51/195 56/86/196
f 59/90/197 5/10/198 54/83/199 58/89/200
f 54/83/201 12/22/202 32/52/203 58/89/204
f 32/52/205 14/25/206 57/88/207 58/89/208
f 44/92/209 4/8/210 39/60/211 60/91/212
f 39/60/213 17/30/214 61/93/215 60/91/216
f 61/93/217 16/28/218 36/57/219 60/91/220
f 63/95/221 5/10/222 59/90/223 62/94/224
f 59/90/225 15/27/226 37/58/227 62/94/228
f 37/58/229 16/28/230 61/93/231 62/94/232
f 21/97/233 1/9/234 25/98/235 64/96/236
f 25/98/237 13/33/238 65/99/239 64/96/240
f 65/99/241 18/31/242 41/63/243 64/96/244
f 55/101/245 5/10/246 63/95/247 66/100/248
f 63/95/249 17/30/250 42/64/251 66/100/252
f 42/64/253 18/31/254 65/99/255 66/100/256
