# This file uses centimeters as units for non-parametric coordinates.

mtllib flag02.mtl
g default
v -12.558218 -0.001000 2.047500
v -12.183218 -0.001000 3.000000
v -11.808218 -0.001000 3.000000
v -11.433218 -0.001000 3.000000
v -11.058218 -0.001000 3.000000
v -10.683218 -0.001000 3.000000
v -10.308218 -0.001000 3.000000
v -9.933218 -0.001000 3.000000
v -9.558218 -0.001000 2.047500
v -12.558218 0.001000 2.047500
v -12.183218 0.001000 3.000000
v -11.808218 0.001000 3.000000
v -11.433218 0.001000 3.000000
v -11.058218 0.001000 3.000000
v -10.683218 0.001000 3.000000
v -10.308218 0.001000 3.000000
v -9.933218 0.001000 3.000000
v -9.558218 0.001000 2.047500
v -12.558218 0.001000 1.297500
v -12.183218 0.001000 2.250000
v -11.808218 0.001000 2.250000
v -11.433218 0.001000 2.250000
v -11.058218 0.001000 2.250000
v -10.683218 0.001000 2.250000
v -10.308218 0.001000 2.250000
v -9.933218 0.001000 2.250000
v -9.558218 0.001000 1.297500
v -12.558218 0.001000 0.955714
v -12.183218 0.001000 1.500000
v -11.808218 0.001000 1.500000
v -11.433218 0.001000 1.500000
v -11.058218 0.001000 1.500000
v -10.683218 0.001000 1.500000
v -10.308218 0.001000 1.500000
v -9.933218 0.001000 1.500000
v -9.558218 0.001000 0.955714
v -12.558218 0.001000 0.750000
v -12.183218 0.001000 0.750000
v -11.808218 0.001000 0.750000
v -11.433218 0.001000 0.750000
v -11.058218 0.001000 0.750000
v -10.683218 0.001000 0.750000
v -10.308218 0.001000 0.750000
v -9.933218 0.001000 0.750000
v -9.558218 0.001000 0.750000
v -12.558218 0.001000 0.000000
v -12.183218 0.001000 0.000000
v -11.808218 0.001000 0.000000
v -11.433218 0.001000 0.000000
v -11.058218 0.001000 0.000000
v -10.683218 0.001000 0.000000
v -10.308218 0.001000 0.000000
v -9.933218 0.001000 0.000000
v -9.558218 0.001000 0.000000
v -12.558218 0.001000 -0.750000
v -12.183218 0.001000 -0.750000
v -11.808218 0.001000 -0.750000
v -11.433218 0.001000 -0.750000
v -11.058218 0.001000 -0.750000
v -10.683218 0.001000 -0.750000
v -10.308218 0.001000 -0.750000
v -9.933218 0.001000 -0.750000
v -9.558218 0.001000 -0.750000
v -12.558218 0.001000 -1.500000
v -12.183218 0.001000 -1.500000
v -11.808218 0.001000 -1.500000
v -11.433218 0.001000 -1.500000
v -11.058218 0.001000 -1.500000
v -10.683218 0.001000 -1.500000
v -10.308218 0.001000 -1.500000
v -9.933218 0.001000 -1.500000
v -9.558218 0.001000 -1.500000
v -12.558218 0.001000 -2.250000
v -12.183218 0.001000 -2.250000
v -11.808218 0.001000 -2.250000
v -11.433218 0.001000 -2.250000
v -11.058218 0.001000 -2.250000
v -10.683218 0.001000 -2.250000
v -10.308218 0.001000 -2.250000
v -9.933218 0.001000 -2.250000
v -9.558218 0.001000 -2.250000
v -12.558218 0.001000 -3.000000
v -12.183218 0.001000 -3.000000
v -11.808218 0.001000 -3.000000
v -11.433218 0.001000 -3.000000
v -11.058218 0.001000 -3.000000
v -10.683218 0.001000 -3.000000
v -10.308218 0.001000 -3.000000
v -9.933218 0.001000 -3.000000
v -9.558218 0.001000 -3.000000
v -12.558218 -0.001000 -3.000000
v -12.183218 -0.001000 -3.000000
v -11.808218 -0.001000 -3.000000
v -11.433218 -0.001000 -3.000000
v -11.058218 -0.001000 -3.000000
v -10.683218 -0.001000 -3.000000
v -10.308218 -0.001000 -3.000000
v -9.933218 -0.001000 -3.000000
v -9.558218 -0.001000 -3.000000
v -12.558218 -0.001000 -2.250000
v -12.183218 -0.001000 -2.250000
v -11.808218 -0.001000 -2.250000
v -11.433218 -0.001000 -2.250000
v -11.058218 -0.001000 -2.250000
v -10.683218 -0.001000 -2.250000
v -10.308218 -0.001000 -2.250000
v -9.933218 -0.001000 -2.250000
v -9.558218 -0.001000 -2.250000
v -12.558218 -0.001000 -1.500000
v -12.183218 -0.001000 -1.500000
v -11.808218 -0.001000 -1.500000
v -11.433218 -0.001000 -1.500000
v -11.058218 -0.001000 -1.500000
v -10.683218 -0.001000 -1.500000
v -10.308218 -0.001000 -1.500000
v -9.933218 -0.001000 -1.500000
v -9.558218 -0.001000 -1.500000
v -12.558218 -0.001000 -0.750000
v -12.183218 -0.001000 -0.750000
v -11.808218 -0.001000 -0.750000
v -11.433218 -0.001000 -0.750000
v -11.058218 -0.001000 -0.750000
v -10.683218 -0.001000 -0.750000
v -10.308218 -0.001000 -0.750000
v -9.933218 -0.001000 -0.750000
v -9.558218 -0.001000 -0.750000
v -12.558218 -0.001000 0.000000
v -12.183218 -0.001000 0.000000
v -11.808218 -0.001000 0.000000
v -11.433218 -0.001000 0.000000
v -11.058218 -0.001000 0.000000
v -10.683218 -0.001000 0.000000
v -10.308218 -0.001000 0.000000
v -9.933218 -0.001000 0.000000
v -9.558218 -0.001000 0.000000
v -12.558218 -0.001000 0.750000
v -12.183218 -0.001000 0.750000
v -11.808218 -0.001000 0.750000
v -11.433218 -0.001000 0.750000
v -11.058218 -0.001000 0.750000
v -10.683218 -0.001000 0.750000
v -10.308218 -0.001000 0.750000
v -9.933218 -0.001000 0.750000
v -9.558218 -0.001000 0.750000
v -12.558218 -0.001000 0.955714
v -12.183218 -0.001000 1.500000
v -11.808218 -0.001000 1.500000
v -11.433218 -0.001000 1.500000
v -11.058218 -0.001000 1.500000
v -10.683218 -0.001000 1.500000
v -10.308218 -0.001000 1.500000
v -9.933218 -0.001000 1.500000
v -9.558218 -0.001000 0.955714
v -12.558218 -0.001000 1.297500
v -12.183218 -0.001000 2.250000
v -11.808218 -0.001000 2.250000
v -11.433218 -0.001000 2.250000
v -11.058218 -0.001000 2.250000
v -10.683218 -0.001000 2.250000
v -10.308218 -0.001000 2.250000
v -9.933218 -0.001000 2.250000
v -9.558218 -0.001000 1.297500
vt 0.020008 0.032167
vt 0.078488 0.032167
vt 0.078488 0.149125
vt 0.020008 0.149125
vt 0.136967 0.032167
vt 0.136967 0.149125
vt 0.195446 0.032167
vt 0.195446 0.149125
vt 0.253925 0.032167
vt 0.253925 0.149125
vt 0.312404 0.032167
vt 0.312404 0.149125
vt 0.370883 0.032167
vt 0.370883 0.149125
vt 0.429362 0.032167
vt 0.429362 0.149125
vt 0.487841 0.032167
vt 0.487841 0.149125
vt 0.078488 0.266084
vt 0.020008 0.266084
vt 0.136967 0.266084
vt 0.195446 0.266084
vt 0.253925 0.266084
vt 0.312404 0.266084
vt 0.370883 0.266084
vt 0.429362 0.266084
vt 0.487841 0.266084
vt 0.078488 0.383042
vt 0.020008 0.383042
vt 0.136967 0.383042
vt 0.195446 0.383042
vt 0.253925 0.383042
vt 0.312404 0.383042
vt 0.370883 0.383042
vt 0.429362 0.383042
vt 0.487841 0.383042
vt 0.078488 0.500000
vt 0.020008 0.500000
vt 0.136967 0.500000
vt 0.195446 0.500000
vt 0.253925 0.500000
vt 0.312404 0.500000
vt 0.370883 0.500000
vt 0.429362 0.500000
vt 0.487841 0.500000
vt 0.078488 0.616958
vt 0.020008 0.616958
vt 0.136967 0.616958
vt 0.195446 0.616958
vt 0.253925 0.616958
vt 0.312404 0.616958
vt 0.370883 0.616958
vt 0.429362 0.616958
vt 0.487841 0.616958
vt 0.078488 0.733916
vt 0.020008 0.733916
vt 0.136967 0.733916
vt 0.195446 0.733916
vt 0.253925 0.733916
vt 0.312404 0.733916
vt 0.370883 0.733916
vt 0.429362 0.733916
vt 0.487841 0.733916
vt 0.078488 0.850875
vt 0.020008 0.850875
vt 0.136967 0.850875
vt 0.195446 0.850875
vt 0.253925 0.850875
vt 0.312404 0.850875
vt 0.370883 0.850875
vt 0.429362 0.850875
vt 0.487841 0.850875
vt 0.078488 0.967833
vt 0.020008 0.967833
vt 0.136967 0.967833
vt 0.195446 0.967833
vt 0.253925 0.967833
vt 0.312404 0.967833
vt 0.370883 0.967833
vt 0.429362 0.967833
vt 0.487841 0.967833
vt 0.512159 0.967833
vt 0.570638 0.967833
vt 0.570638 0.850875
vt 0.512159 0.850875
vt 0.629117 0.967833
vt 0.629117 0.850875
vt 0.687596 0.967833
vt 0.687596 0.850875
vt 0.746075 0.967833
vt 0.746075 0.850875
vt 0.804554 0.967833
vt 0.804554 0.850875
vt 0.863034 0.967833
vt 0.863034 0.850875
vt 0.921512 0.967833
vt 0.921512 0.850875
vt 0.979992 0.967833
vt 0.979992 0.850875
vt 0.570638 0.733916
vt 0.512159 0.733916
vt 0.629117 0.733916
vt 0.687596 0.733916
vt 0.746075 0.733916
vt 0.804554 0.733916
vt 0.863034 0.733916
vt 0.921512 0.733916
vt 0.979992 0.733916
vt 0.570638 0.616958
vt 0.512159 0.616958
vt 0.629117 0.616958
vt 0.687596 0.616958
vt 0.746075 0.616958
vt 0.804554 0.616958
vt 0.863034 0.616958
vt 0.921512 0.616958
vt 0.979992 0.616958
vt 0.570638 0.500000
vt 0.512159 0.500000
vt 0.629117 0.500000
vt 0.687596 0.500000
vt 0.746075 0.500000
vt 0.804554 0.500000
vt 0.863034 0.500000
vt 0.921512 0.500000
vt 0.979992 0.500000
vt 0.570638 0.383042
vt 0.512159 0.383042
vt 0.629117 0.383042
vt 0.687596 0.383042
vt 0.746075 0.383042
vt 0.804554 0.383042
vt 0.863034 0.383042
vt 0.921512 0.383042
vt 0.979992 0.383042
vt 0.570638 0.266084
vt 0.512159 0.266084
vt 0.629117 0.266084
vt 0.687596 0.266084
vt 0.746075 0.266084
vt 0.804554 0.266084
vt 0.863034 0.266084
vt 0.921512 0.266084
vt 0.979992 0.266084
vt 0.570638 0.149125
vt 0.512159 0.149125
vt 0.629117 0.149125
vt 0.687596 0.149125
vt 0.746075 0.149125
vt 0.804554 0.149125
vt 0.863034 0.149125
vt 0.921512 0.149125
vt 0.979992 0.149125
vt 0.570638 0.032167
vt 0.512159 0.032167
vt 0.629117 0.032167
vt 0.687596 0.032167
vt 0.746075 0.032167
vt 0.804554 0.032167
vt 0.863034 0.032167
vt 0.921512 0.032167
vt 0.979992 0.032167
vn 0.000000 1.000000 0.000000
vn 0.000000 1.000000 0.000000
vn 0.000000 1.000000 0.000000
vn 0.000000 1.000000 0.000000
vn 0.000000 1.000000 0.000000
vn 0.000000 1.000000 0.000000
vn 0.000000 1.000000 0.000000
vn 0.000000 1.000000 0.000000
vn 0.000000 1.000000 0.000000
vn 0.000000 1.000000 0.000000
vn 0.000000 1.000000 0.000000
vn 0.000000 1.000000 0.000000
vn 0.000000 1.000000 0.000000
vn 0.000000 1.000000 0.000000
vn 0.000000 1.000000 0.000000
vn 0.000000 1.000000 0.000000
vn 0.000000 1.000000 0.000000
vn 0.000000 1.000000 0.000000
vn 0.000000 1.000000 0.000000
vn 0.000000 1.000000 0.000000
vn 0.000000 1.000000 0.000000
vn 0.000000 1.000000 0.000000
vn 0.000000 1.000000 0.000000
vn 0.000000 1.000000 0.000000
vn 0.000000 1.000000 0.000000
vn 0.000000 1.000000 0.000000
vn 0.000000 1.000000 0.000000
vn 0.000000 1.000000 0.000000
vn 0.000000 1.000000 0.000000
vn 0.000000 1.000000 0.000000
vn 0.000000 1.000000 0.000000
vn 0.000000 1.000000 0.000000
vn 0.000000 1.000000 0.000000
vn 0.000000 1.000000 0.000000
vn 0.000000 1.000000 0.000000
vn 0.000000 1.000000 0.000000
vn 0.000000 1.000000 0.000000
vn 0.000000 1.000000 0.000000
vn 0.000000 1.000000 0.000000
vn 0.000000 1.000000 0.000000
vn 0.000000 1.000000 0.000000
vn 0.000000 1.000000 0.000000
vn 0.000000 1.000000 0.000000
vn 0.000000 1.000000 0.000000
vn 0.000000 1.000000 0.000000
vn 0.000000 1.000000 0.000000
vn 0.000000 1.000000 0.000000
vn 0.000000 1.000000 0.000000
vn 0.000000 1.000000 0.000000
vn 0.000000 1.000000 0.000000
vn 0.000000 1.000000 0.000000
vn 0.000000 1.000000 0.000000
vn 0.000000 1.000000 0.000000
vn 0.000000 1.000000 0.000000
vn 0.000000 1.000000 0.000000
vn 0.000000 1.000000 0.000000
vn 0.000000 1.000000 0.000000
vn 0.000000 1.000000 0.000000
vn 0.000000 1.000000 0.000000
vn 0.000000 1.000000 0.000000
vn 0.000000 1.000000 0.000000
vn 0.000000 1.000000 0.000000
vn 0.000000 1.000000 0.000000
vn 0.000000 1.000000 0.000000
vn 0.000000 1.000000 0.000000
vn 0.000000 1.000000 0.000000
vn 0.000000 1.000000 0.000000
vn 0.000000 1.000000 0.000000
vn 0.000000 1.000000 0.000000
vn 0.000000 1.000000 0.000000
vn 0.000000 1.000000 0.000000
vn 0.000000 1.000000 0.000000
vn 0.000000 1.000000 0.000000
vn 0.000000 1.000000 0.000000
vn 0.000000 1.000000 0.000000
vn 0.000000 1.000000 0.000000
vn 0.000000 1.000000 0.000000
vn 0.000000 1.000000 0.000000
vn 0.000000 1.000000 0.000000
vn 0.000000 1.000000 0.000000
vn 0.000000 1.000000 0.000000
vn 0.000000 -1.000000 0.000000
vn 0.000000 -1.000000 0.000000
vn 0.000000 -1.000000 0.000000
vn 0.000000 -1.000000 0.000000
vn 0.000000 -1.000000 0.000000
vn 0.000000 -1.000000 0.000000
vn 0.000000 -1.000000 0.000000
vn 0.000000 -1.000000 0.000000
vn 0.000000 -1.000000 0.000000
vn 0.000000 -1.000000 0.000000
vn 0.000000 -1.000000 0.000000
vn 0.000000 -1.000000 0.000000
vn 0.000000 -1.000000 0.000000
vn 0.000000 -1.000000 0.000000
vn 0.000000 -1.000000 0.000000
vn 0.000000 -1.000000 0.000000
vn 0.000000 -1.000000 0.000000
vn 0.000000 -1.000000 0.000000
vn 0.000000 -1.000000 0.000000
vn 0.000000 -1.000000 0.000000
vn 0.000000 -1.000000 0.000000
vn 0.000000 -1.000000 0.000000
vn 0.000000 -1.000000 0.000000
vn 0.000000 -1.000000 0.000000
vn 0.000000 -1.000000 0.000000
vn 0.000000 -1.000000 0.000000
vn 0.000000 -1.000000 0.000000
vn 0.000000 -1.000000 0.000000
vn 0.000000 -1.000000 0.000000
vn 0.000000 -1.000000 0.000000
vn 0.000000 -1.000000 0.000000
vn 0.000000 -1.000000 0.000000
vn 0.000000 -1.000000 0.000000
vn 0.000000 -1.000000 0.000000
vn 0.000000 -1.000000 0.000000
vn 0.000000 -1.000000 0.000000
vn 0.000000 -1.000000 0.000000
vn 0.000000 -1.000000 0.000000
vn 0.000000 -1.000000 0.000000
vn 0.000000 -1.000000 0.000000
vn 0.000000 -1.000000 0.000000
vn 0.000000 -1.000000 0.000000
vn 0.000000 -1.000000 0.000000
vn 0.000000 -1.000000 0.000000
vn 0.000000 -1.000000 0.000000
vn 0.000000 -1.000000 0.000000
vn 0.000000 -1.000000 0.000000
vn 0.000000 -1.000000 0.000000
vn 0.000000 -1.000000 0.000000
vn 0.000000 -1.000000 0.000000
vn 0.000000 -1.000000 0.000000
vn 0.000000 -1.000000 0.000000
vn 0.000000 -1.000000 0.000000
vn 0.000000 -1.000000 0.000000
vn 0.000000 -1.000000 0.000000
vn 0.000000 -1.000000 0.000000
vn 0.000000 -1.000000 0.000000
vn 0.000000 -1.000000 0.000000
vn 0.000000 -1.000000 0.000000
vn 0.000000 -1.000000 0.000000
vn 0.000000 -1.000000 0.000000
vn 0.000000 -1.000000 0.000000
vn 0.000000 -1.000000 0.000000
vn 0.000000 -1.000000 0.000000
vn 0.000000 -1.000000 0.000000
vn 0.000000 -1.000000 0.000000
vn 0.000000 -1.000000 0.000000
vn 0.000000 -1.000000 0.000000
vn 0.000000 -1.000000 0.000000
vn 0.000000 -1.000000 0.000000
vn 0.000000 -1.000000 0.000000
vn 0.000000 -1.000000 0.000000
vn 0.000000 -1.000000 0.000000
vn 0.000000 -1.000000 0.000000
vn 0.000000 -1.000000 0.000000
vn 0.000000 -1.000000 0.000000
vn 0.000000 -1.000000 0.000000
vn 0.000000 -1.000000 0.000000
vn 0.000000 -1.000000 0.000000
vn 0.000000 -1.000000 0.000000
vn 0.000000 -1.000000 0.000000
s 1
g pCube4
usemtl initialShadingGroup
f 10/1/1 11/2/2 20/3/3 19/4/4
f 11/2/2 12/5/5 21/6/6 20/3/3
f 12/5/5 13/7/7 22/8/8 21/6/6
f 13/7/7 14/9/9 23/10/10 22/8/8
f 14/9/9 15/11/11 24/12/12 23/10/10
f 15/11/11 16/13/13 25/14/14 24/12/12
f 16/13/13 17/15/15 26/16/16 25/14/14
f 17/15/15 18/17/17 27/18/18 26/16/16
f 19/4/4 20/3/3 29/19/19 28/20/20
f 20/3/3 21/6/6 30/21/21 29/19/19
f 21/6/6 22/8/8 31/22/22 30/21/21
f 22/8/8 23/10/10 32/23/23 31/22/22
f 23/10/10 24/12/12 33/24/24 32/23/23
f 24/12/12 25/14/14 34/25/25 33/24/24
f 25/14/14 26/16/16 35/26/26 34/25/25
f 26/16/16 27/18/18 36/27/27 35/26/26
f 28/20/20 29/19/19 38/28/28 37/29/29
f 29/19/19 30/21/21 39/30/30 38/28/28
f 30/21/21 31/22/22 40/31/31 39/30/30
f 31/22/22 32/23/23 41/32/32 40/31/31
f 32/23/23 33/24/24 42/33/33 41/32/32
f 33/24/24 34/25/25 43/34/34 42/33/33
f 34/25/25 35/26/26 44/35/35 43/34/34
f 35/26/26 36/27/27 45/36/36 44/35/35
f 37/29/29 38/28/28 47/37/37 46/38/38
f 38/28/28 39/30/30 48/39/39 47/37/37
f 39/30/30 40/31/31 49/40/40 48/39/39
f 40/31/31 41/32/32 50/41/41 49/40/40
f 41/32/32 42/33/33 51/42/42 50/41/41
f 42/33/33 43/34/34 52/43/43 51/42/42
f 43/34/34 44/35/35 53/44/44 52/43/43
f 44/35/35 45/36/36 54/45/45 53/44/44
f 46/38/38 47/37/37 56/46/46 55/47/47
f 47/37/37 48/39/39 57/48/48 56/46/46
f 48/39/39 49/40/40 58/49/49 57/48/48
f 49/40/40 50/41/41 59/50/50 58/49/49
f 50/41/41 51/42/42 60/51/51 59/50/50
f 51/42/42 52/43/43 61/52/52 60/51/51
f 52/43/43 53/44/44 62/53/53 61/52/52
f 53/44/44 54/45/45 63/54/54 62/53/53
f 55/47/47 56/46/46 65/55/55 64/56/56
f 56/46/46 57/48/48 66/57/57 65/55/55
f 57/48/48 58/49/49 67/58/58 66/57/57
f 58/49/49 59/50/50 68/59/59 67/58/58
f 59/50/50 60/51/51 69/60/60 68/59/59
f 60/51/51 61/52/52 70/61/61 69/60/60
f 61/52/52 62/53/53 71/62/62 70/61/61
f 62/53/53 63/54/54 72/63/63 71/62/62
f 64/56/56 65/55/55 74/64/64 73/65/65
f 65/55/55 66/57/57 75/66/66 74/64/64
f 66/57/57 67/58/58 76/67/67 75/66/66
f 67/58/58 68/59/59 77/68/68 76/67/67
f 68/59/59 69/60/60 78/69/69 77/68/68
f 69/60/60 70/61/61 79/70/70 78/69/69
f 70/61/61 71/62/62 80/71/71 79/70/70
f 71/62/62 72/63/63 81/72/72 80/71/71
f 73/65/65 74/64/64 83/73/73 82/74/74
f 74/64/64 75/66/66 84/75/75 83/73/73
f 75/66/66 76/67/67 85/76/76 84/75/75
f 76/67/67 77/68/68 86/77/77 85/76/76
f 77/68/68 78/69/69 87/78/78 86/77/77
f 78/69/69 79/70/70 88/79/79 87/78/78
f 79/70/70 80/71/71 89/80/80 88/79/79
f 80/71/71 81/72/72 90/81/81 89/80/80
s 2
f 91/82/82 92/83/83 101/84/84 100/85/85
f 92/83/83 93/86/86 102/87/87 101/84/84
f 93/86/86 94/88/88 103/89/89 102/87/87
f 94/88/88 95/90/90 104/91/91 103/89/89
f 95/90/90 96/92/92 105/93/93 104/91/91
f 96/92/92 97/94/94 106/95/95 105/93/93
f 97/94/94 98/96/96 107/97/97 106/95/95
f 98/96/96 99/98/98 108/99/99 107/97/97
f 100/85/85 101/84/84 110/100/100 109/101/101
f 101/84/84 102/87/87 111/102/102 110/100/100
f 102/87/87 103/89/89 112/103/103 111/102/102
f 103/89/89 104/91/91 113/104/104 112/103/103
f 104/91/91 105/93/93 114/105/105 113/104/104
f 105/93/93 106/95/95 115/106/106 114/105/105
f 106/95/95 107/97/97 116/107/107 115/106/106
f 107/97/97 108/99/99 117/108/108 116/107/107
f 109/101/101 110/100/100 119/109/109 118/110/110
f 110/100/100 111/102/102 120/111/111 119/109/109
f 111/102/102 112/103/103 121/112/112 120/111/111
f 112/103/103 113/104/104 122/113/113 121/112/112
f 113/104/104 114/105/105 123/114/114 122/113/113
f 114/105/105 115/106/106 124/115/115 123/114/114
f 115/106/106 116/107/107 125/116/116 124/115/115
f 116/107/107 117/108/108 126/117/117 125/116/116
f 118/110/110 119/109/109 128/118/118 127/119/119
f 119/109/109 120/111/111 129/120/120 128/118/118
f 120/111/111 121/112/112 130/121/121 129/120/120
f 121/112/112 122/113/113 131/122/122 130/121/121
f 122/113/113 123/114/114 132/123/123 131/122/122
f 123/114/114 124/115/115 133/124/124 132/123/123
f 124/115/115 125/116/116 134/125/125 133/124/124
f 125/116/116 126/117/117 135/126/126 134/125/125
f 127/119/119 128/118/118 137/127/127 136/128/128
f 128/118/118 129/120/120 138/129/129 137/127/127
f 129/120/120 130/121/121 139/130/130 138/129/129
f 130/121/121 131/122/122 140/131/131 139/130/130
f 131/122/122 132/123/123 141/132/132 140/131/131
f 132/123/123 133/124/124 142/133/133 141/132/132
f 133/124/124 134/125/125 143/134/134 142/133/133
f 134/125/125 135/126/126 144/135/135 143/134/134
f 136/128/128 137/127/127 146/136/136 145/137/137
f 137/127/127 138/129/129 147/138/138 146/136/136
f 138/129/129 139/130/130 148/139/139 147/138/138
f 139/130/130 140/131/131 149/140/140 148/139/139
f 140/131/131 141/132/132 150/141/141 149/140/140
f 141/132/132 142/133/133 151/142/142 150/141/141
f 142/133/133 143/134/134 152/143/143 151/142/142
f 143/134/134 144/135/135 153/144/144 152/143/143
f 145/137/137 146/136/136 155/145/145 154/146/146
f 146/136/136 147/138/138 156/147/147 155/145/145
f 147/138/138 148/139/139 157/148/148 156/147/147
f 148/139/139 149/140/140 158/149/149 157/148/148
f 149/140/140 150/141/141 159/150/150 158/149/149
f 150/141/141 151/142/142 160/151/151 159/150/150
f 151/142/142 152/143/143 161/152/152 160/151/151
f 152/143/143 153/144/144 162/153/153 161/152/152
f 154/146/146 155/145/145 2/154/154 1/155/155
f 155/145/145 156/147/147 3/156/156 2/154/154
f 156/147/147 157/148/148 4/157/157 3/156/156
f 157/148/148 158/149/149 5/158/158 4/157/157
f 158/149/149 159/150/150 6/159/159 5/158/158
f 159/150/150 160/151/151 7/160/160 6/159/159
f 160/151/151 161/152/152 8/161/161 7/160/160
f 161/152/152 162/153/153 9/162/162 8/161/161
